%YAML 1.1
%TAG !u! tag:unity3d.com,2011:
--- !u!29 &1
OcclusionCullingSettings:
  m_ObjectHideFlags: 0
  serializedVersion: 2
  m_OcclusionBakeSettings:
    smallestOccluder: 5
    smallestHole: 0.25
    backfaceThreshold: 100
  m_SceneGUID: 00000000000000000000000000000000
  m_OcclusionCullingData: {fileID: 0}
--- !u!104 &2
RenderSettings:
  m_ObjectHideFlags: 0
  serializedVersion: 9
  m_Fog: 0
  m_FogColor: {r: 0.5, g: 0.5, b: 0.5, a: 1}
  m_FogMode: 3
  m_FogDensity: 0.01
  m_LinearFogStart: 0
  m_LinearFogEnd: 300
  m_AmbientSkyColor: {r: 0.21200001, g: 0.227, b: 0.259, a: 1}
  m_AmbientEquatorColor: {r: 0.114, g: 0.125, b: 0.133, a: 1}
  m_AmbientGroundColor: {r: 0.047, g: 0.043, b: 0.035, a: 1}
  m_AmbientIntensity: 1.86
  m_AmbientMode: 0
  m_SubtractiveShadowColor: {r: 0.42, g: 0.478, b: 0.627, a: 1}
  m_SkyboxMaterial: {fileID: 2100000, guid: 00352451ae390a14891893758f3ed8bc, type: 2}
  m_HaloStrength: 0.5
  m_FlareStrength: 1
  m_FlareFadeSpeed: 3
  m_HaloTexture: {fileID: 0}
  m_SpotCookie: {fileID: 10001, guid: 0000000000000000e000000000000000, type: 0}
  m_DefaultReflectionMode: 0
  m_DefaultReflectionResolution: 128
  m_ReflectionBounces: 1
  m_ReflectionIntensity: 0
  m_CustomReflection: {fileID: 0}
  m_Sun: {fileID: 0}
  m_IndirectSpecularColor: {r: 0, g: 0, b: 0, a: 0}
  m_UseRadianceAmbientProbe: 0
--- !u!157 &3
LightmapSettings:
  m_ObjectHideFlags: 0
  serializedVersion: 12
  m_GIWorkflowMode: 1
  m_GISettings:
    serializedVersion: 2
    m_BounceScale: 1
    m_IndirectOutputScale: 1
    m_AlbedoBoost: 1
    m_EnvironmentLightingMode: 0
    m_EnableBakedLightmaps: 1
    m_EnableRealtimeLightmaps: 0
  m_LightmapEditorSettings:
    serializedVersion: 12
    m_Resolution: 2
    m_BakeResolution: 40
    m_AtlasSize: 1024
    m_AO: 0
    m_AOMaxDistance: 1
    m_CompAOExponent: 1
    m_CompAOExponentDirect: 0
    m_ExtractAmbientOcclusion: 0
    m_Padding: 2
    m_LightmapParameters: {fileID: 0}
    m_LightmapsBakeMode: 1
    m_TextureCompression: 1
    m_FinalGather: 0
    m_FinalGatherFiltering: 1
    m_FinalGatherRayCount: 256
    m_ReflectionCompression: 2
    m_MixedBakeMode: 2
    m_BakeBackend: 1
    m_PVRSampling: 1
    m_PVRDirectSampleCount: 32
    m_PVRSampleCount: 500
    m_PVRBounces: 0
    m_PVREnvironmentSampleCount: 500
    m_PVREnvironmentReferencePointCount: 2048
    m_PVRFilteringMode: 2
    m_PVRDenoiserTypeDirect: 0
    m_PVRDenoiserTypeIndirect: 0
    m_PVRDenoiserTypeAO: 0
    m_PVRFilterTypeDirect: 0
    m_PVRFilterTypeIndirect: 0
    m_PVRFilterTypeAO: 0
    m_PVREnvironmentMIS: 0
    m_PVRCulling: 1
    m_PVRFilteringGaussRadiusDirect: 1
    m_PVRFilteringGaussRadiusIndirect: 5
    m_PVRFilteringGaussRadiusAO: 2
    m_PVRFilteringAtrousPositionSigmaDirect: 0.5
    m_PVRFilteringAtrousPositionSigmaIndirect: 2
    m_PVRFilteringAtrousPositionSigmaAO: 1
    m_ExportTrainingData: 0
    m_TrainingDataDestination: TrainingData
    m_LightProbeSampleCountMultiplier: 4
  m_LightingDataAsset: {fileID: 112000002, guid: db9ea4829b1b72449899fc3c41a5f242, type: 2}
  m_LightingSettings: {fileID: 4890085278179872738, guid: a71b1b2a91fc9d8489fa6021b3459fee, type: 2}
--- !u!196 &4
NavMeshSettings:
  serializedVersion: 2
  m_ObjectHideFlags: 0
  m_BuildSettings:
    serializedVersion: 2
    agentTypeID: 0
    agentRadius: 0.5
    agentHeight: 2
    agentSlope: 45
    agentClimb: 0.4
    ledgeDropHeight: 0
    maxJumpAcrossDistance: 0
    minRegionArea: 2
    manualCellSize: 0
    cellSize: 0.16666667
    manualTileSize: 0
    tileSize: 256
    accuratePlacement: 0
    maxJobWorkers: 0
    preserveTilesOutsideBounds: 0
    debug:
      m_Flags: 0
  m_NavMeshData: {fileID: 0}
--- !u!114 &201665870
MonoBehaviour:
  m_ObjectHideFlags: 0
  m_CorrespondingSourceObject: {fileID: 0}
  m_PrefabInstance: {fileID: 0}
  m_PrefabAsset: {fileID: 0}
  m_GameObject: {fileID: 0}
  m_Enabled: 1
  m_EditorHideFlags: 0
  m_Script: {fileID: 11500000, guid: ec0b4dd729a12d046982652f834580a2, type: 3}
  m_Name: example_directional_SH_LMA1
  m_EditorClassIdentifier: 
  resolution: 512
  bitmask: 1
  id: 0
  sortingID: 2
  isImplicit: 1
  area: 0
  totalVertexCount: 0
  vertexCounter: 0
  sceneLodLevel: -1
  sceneName: example_directional_SH
  containsTerrains: 0
  probes: 0
  mode: 1
  renderMode: 1000
  renderDirMode: 1000
  atlasPacker: 1000
  computeSSS: 0
  sssSamples: 16
  sssDensity: 10
  sssColor: {r: 1, g: 1, b: 1, a: 1}
  fakeShadowBias: 0
  transparentSelfShadow: 0
  flipNormal: 0
  parentName: 
  overridePath: 
  fixPos3D: 0
  voxelSize: {x: 1, y: 1, z: 1}
--- !u!1 &360072743
GameObject:
  m_ObjectHideFlags: 0
  m_CorrespondingSourceObject: {fileID: 0}
  m_PrefabInstance: {fileID: 0}
  m_PrefabAsset: {fileID: 0}
  serializedVersion: 6
  m_Component:
  - component: {fileID: 360072746}
  - component: {fileID: 360072745}
  - component: {fileID: 360072744}
  m_Layer: 0
  m_Name: Directional Light
  m_TagString: Untagged
  m_Icon: {fileID: 0}
  m_NavMeshLayer: 0
  m_StaticEditorFlags: 4294967295
  m_IsActive: 1
--- !u!114 &360072744
MonoBehaviour:
  m_ObjectHideFlags: 0
  m_CorrespondingSourceObject: {fileID: 0}
  m_PrefabInstance: {fileID: 0}
  m_PrefabAsset: {fileID: 0}
  m_GameObject: {fileID: 360072743}
  m_Enabled: 1
  m_EditorHideFlags: 0
  m_Script: {fileID: 11500000, guid: c74ce2158ae608549902afb4112fd042, type: 3}
  m_Name: 
  m_EditorClassIdentifier: 
  color: {r: 1, g: 0.95686275, b: 0.8392157, a: 1}
  intensity: 1
  shadowSpread: 0.01
  samples: 16
  bitmask: 1
  bakeToIndirect: 0
  shadowmask: 1
  shadowmaskDenoise: 0
  indirectIntensity: 1
  cloudShadow: {fileID: 0}
  cloudShadowTilingX: 0.01
  cloudShadowTilingY: 0.01
  cloudShadowOffsetX: 0
  cloudShadowOffsetY: 0
  UID: 904775215
--- !u!108 &360072745
Light:
  m_ObjectHideFlags: 0
  m_CorrespondingSourceObject: {fileID: 0}
  m_PrefabInstance: {fileID: 0}
  m_PrefabAsset: {fileID: 0}
  m_GameObject: {fileID: 360072743}
  m_Enabled: 0
  serializedVersion: 10
  m_Type: 1
  m_Shape: 0
  m_Color: {r: 1, g: 0.95686275, b: 0.8392157, a: 1}
  m_Intensity: 1
  m_Range: 10
  m_SpotAngle: 30
  m_InnerSpotAngle: 21.80208
  m_CookieSize: 10
  m_Shadows:
    m_Type: 2
    m_Resolution: 3
    m_CustomResolution: -1
    m_Strength: 1
    m_Bias: 0
    m_NormalBias: 0.4
    m_NearPlane: 0.2
    m_CullingMatrixOverride:
      e00: 1
      e01: 0
      e02: 0
      e03: 0
      e10: 0
      e11: 1
      e12: 0
      e13: 0
      e20: 0
      e21: 0
      e22: 1
      e23: 0
      e30: 0
      e31: 0
      e32: 0
      e33: 1
    m_UseCullingMatrixOverride: 0
  m_Cookie: {fileID: 0}
  m_DrawHalo: 0
  m_Flare: {fileID: 0}
  m_RenderMode: 0
  m_CullingMask:
    serializedVersion: 2
    m_Bits: 4294967295
  m_RenderingLayerMask: 1
  m_Lightmapping: 1
  m_LightShadowCasterMode: 0
  m_AreaSize: {x: 1, y: 1}
  m_BounceIntensity: 1
  m_ColorTemperature: 6570
  m_UseColorTemperature: 0
  m_BoundingSphereOverride: {x: 0, y: 0, z: 0, w: 0}
  m_UseBoundingSphereOverride: 0
  m_UseViewFrustumForShadowCasterCull: 1
  m_ShadowRadius: 0
  m_ShadowAngle: 0
--- !u!4 &360072746
Transform:
  m_ObjectHideFlags: 0
  m_CorrespondingSourceObject: {fileID: 0}
  m_PrefabInstance: {fileID: 0}
  m_PrefabAsset: {fileID: 0}
  m_GameObject: {fileID: 360072743}
  m_LocalRotation: {x: 0.41826352, y: -0.12976265, z: 0.060509156, w: 0.8969705}
  m_LocalPosition: {x: 0, y: 3, z: -30.83}
  m_LocalScale: {x: 1, y: 1, z: 1}
  m_Children: []
  m_Father: {fileID: 0}
  m_RootOrder: 1
  m_LocalEulerAnglesHint: {x: 50.000004, y: -16.463001, z: 0}
--- !u!1 &361391283
GameObject:
  m_ObjectHideFlags: 0
  m_CorrespondingSourceObject: {fileID: 0}
  m_PrefabInstance: {fileID: 0}
  m_PrefabAsset: {fileID: 0}
  serializedVersion: 6
  m_Component:
  - component: {fileID: 361391285}
  - component: {fileID: 361391284}
  m_Layer: 0
  m_Name: Skylight
  m_TagString: Untagged
  m_Icon: {fileID: 0}
  m_NavMeshLayer: 0
  m_StaticEditorFlags: 0
  m_IsActive: 1
--- !u!114 &361391284
MonoBehaviour:
  m_ObjectHideFlags: 0
  m_CorrespondingSourceObject: {fileID: 0}
  m_PrefabInstance: {fileID: 0}
  m_PrefabAsset: {fileID: 0}
  m_GameObject: {fileID: 361391283}
  m_Enabled: 1
  m_EditorHideFlags: 0
  m_Script: {fileID: 11500000, guid: 306a56f30ff21b5439963fc745cfe9cc, type: 3}
  m_Name: 
  m_EditorClassIdentifier: 
  texName: sky.dds
  color: {r: 1, g: 1, b: 1, a: 1}
  intensity: 2
  samples: 32
  hemispherical: 1
  bitmask: 1
  bakeToIndirect: 1
  indirectIntensity: 1
  tangentSH: 0
  correctRotation: 0
  cubemap: {fileID: 8900000, guid: c04139a56038625459f8bb6dafe1ddf4, type: 3}
  UID: -2135902434
--- !u!4 &361391285
Transform:
  m_ObjectHideFlags: 0
  m_CorrespondingSourceObject: {fileID: 0}
  m_PrefabInstance: {fileID: 0}
  m_PrefabAsset: {fileID: 0}
  m_GameObject: {fileID: 361391283}
  m_LocalRotation: {x: 0, y: 0, z: 0, w: 1}
  m_LocalPosition: {x: -7.22859, y: 5.526824, z: 12.690209}
  m_LocalScale: {x: 1, y: 1, z: 1}
  m_Children: []
  m_Father: {fileID: 0}
  m_RootOrder: 5
  m_LocalEulerAnglesHint: {x: 0, y: 0, z: 0}
--- !u!114 &440257513
MonoBehaviour:
  m_ObjectHideFlags: 0
  m_CorrespondingSourceObject: {fileID: 0}
  m_PrefabInstance: {fileID: 0}
  m_PrefabAsset: {fileID: 0}
  m_GameObject: {fileID: 0}
  m_Enabled: 1
  m_EditorHideFlags: 0
  m_Script: {fileID: 11500000, guid: ec0b4dd729a12d046982652f834580a2, type: 3}
  m_Name: example_directional_SH_LM0
  m_EditorClassIdentifier: 
  resolution: 512
  bitmask: 1
  id: 1
  sortingID: 1
  isImplicit: 1
  area: 647.2114
  totalVertexCount: 0
  vertexCounter: 0
  sceneLodLevel: -1
  sceneName: example_directional_SH
  containsTerrains: 0
  probes: 0
  mode: 1
  renderMode: 1000
  renderDirMode: 1000
  atlasPacker: 1000
  computeSSS: 0
  sssSamples: 16
  sssDensity: 10
  sssColor: {r: 1, g: 1, b: 1, a: 1}
  fakeShadowBias: 0
  transparentSelfShadow: 0
  flipNormal: 0
  parentName: 
  overridePath: 
  fixPos3D: 0
  voxelSize: {x: 1, y: 1, z: 1}
--- !u!1 &740399876
GameObject:
  m_ObjectHideFlags: 0
  m_CorrespondingSourceObject: {fileID: 0}
  m_PrefabInstance: {fileID: 0}
  m_PrefabAsset: {fileID: 0}
  serializedVersion: 6
  m_Component:
  - component: {fileID: 740399880}
  - component: {fileID: 740399879}
  - component: {fileID: 740399877}
  - component: {fileID: 740399878}
  m_Layer: 0
  m_Name: Sphere
  m_TagString: Untagged
  m_Icon: {fileID: 0}
  m_NavMeshLayer: 0
  m_StaticEditorFlags: 4294967291
  m_IsActive: 1
--- !u!23 &740399877
MeshRenderer:
  m_ObjectHideFlags: 0
  m_CorrespondingSourceObject: {fileID: 0}
  m_PrefabInstance: {fileID: 0}
  m_PrefabAsset: {fileID: 0}
  m_GameObject: {fileID: 740399876}
  m_Enabled: 1
  m_CastShadows: 1
  m_ReceiveShadows: 1
  m_DynamicOccludee: 1
  m_MotionVectors: 1
  m_LightProbeUsage: 1
  m_ReflectionProbeUsage: 1
  m_RayTracingMode: 2
  m_RayTraceProcedural: 0
  m_RenderingLayerMask: 1
  m_RendererPriority: 0
  m_Materials:
  - {fileID: 2100000, guid: c0d13824fe14c9c459b745b1ab148374, type: 2}
  m_StaticBatchInfo:
    firstSubMesh: 0
    subMeshCount: 0
  m_StaticBatchRoot: {fileID: 0}
  m_ProbeAnchor: {fileID: 0}
  m_LightProbeVolumeOverride: {fileID: 0}
  m_ScaleInLightmap: 1
  m_ReceiveGI: 1
  m_PreserveUVs: 1
  m_IgnoreNormalsForChartDetection: 0
  m_ImportantGI: 0
  m_StitchLightmapSeams: 1
  m_SelectedEditorRenderState: 3
  m_MinimumChartSize: 4
  m_AutoUVMaxDistance: 0.5
  m_AutoUVMaxAngle: 89
  m_LightmapParameters: {fileID: 0}
  m_SortingLayerID: 0
  m_SortingLayer: 0
  m_SortingOrder: 0
  m_AdditionalVertexStreams: {fileID: 4300000, guid: c131d839dc7bb0049a7ab1c9cef73ac7, type: 2}
--- !u!114 &740399878
MonoBehaviour:
  m_ObjectHideFlags: 0
  m_CorrespondingSourceObject: {fileID: 0}
  m_PrefabInstance: {fileID: 0}
  m_PrefabAsset: {fileID: 0}
  m_GameObject: {fileID: 740399876}
  m_Enabled: 1
  m_EditorHideFlags: 0
  m_Script: {fileID: 11500000, guid: 0a747f33c53bd3042af4ac90fc2a1fd3, type: 3}
  m_Name: 
  m_EditorClassIdentifier: 
  lmgroupAsset: {fileID: 11400000, guid: 2f32081c71e7f6245a10b3791f33b76d, type: 2}
  instanceResolutionOverride: 0
  instanceResolution: 256
--- !u!33 &740399879
MeshFilter:
  m_ObjectHideFlags: 0
  m_CorrespondingSourceObject: {fileID: 0}
  m_PrefabInstance: {fileID: 0}
  m_PrefabAsset: {fileID: 0}
  m_GameObject: {fileID: 740399876}
  m_Mesh: {fileID: 10207, guid: 0000000000000000e000000000000000, type: 0}
--- !u!4 &740399880
Transform:
  m_ObjectHideFlags: 0
  m_CorrespondingSourceObject: {fileID: 0}
  m_PrefabInstance: {fileID: 0}
  m_PrefabAsset: {fileID: 0}
  m_GameObject: {fileID: 740399876}
  m_LocalRotation: {x: -0, y: -0.72137934, z: -0, w: 0.69254017}
  m_LocalPosition: {x: -0.34, y: 1.37, z: -0.25}
  m_LocalScale: {x: 3.5998216, y: 3.5998213, z: 3.5998213}
  m_Children: []
  m_Father: {fileID: 0}
  m_RootOrder: 2
  m_LocalEulerAnglesHint: {x: 0, y: -92.337006, z: 0}
--- !u!1 &896364784
GameObject:
  m_ObjectHideFlags: 0
  m_CorrespondingSourceObject: {fileID: 0}
  m_PrefabInstance: {fileID: 0}
  m_PrefabAsset: {fileID: 0}
  serializedVersion: 6
  m_Component:
  - component: {fileID: 896364789}
  - component: {fileID: 896364788}
  - component: {fileID: 896364786}
  - component: {fileID: 896364785}
  m_Layer: 0
  m_Name: Main Camera
  m_TagString: MainCamera
  m_Icon: {fileID: 0}
  m_NavMeshLayer: 0
  m_StaticEditorFlags: 0
  m_IsActive: 1
--- !u!81 &896364785
AudioListener:
  m_ObjectHideFlags: 0
  m_CorrespondingSourceObject: {fileID: 0}
  m_PrefabInstance: {fileID: 0}
  m_PrefabAsset: {fileID: 0}
  m_GameObject: {fileID: 896364784}
  m_Enabled: 1
--- !u!124 &896364786
Behaviour:
  m_ObjectHideFlags: 0
  m_CorrespondingSourceObject: {fileID: 0}
  m_PrefabInstance: {fileID: 0}
  m_PrefabAsset: {fileID: 0}
  m_GameObject: {fileID: 896364784}
  m_Enabled: 1
--- !u!20 &896364788
Camera:
  m_ObjectHideFlags: 0
  m_CorrespondingSourceObject: {fileID: 0}
  m_PrefabInstance: {fileID: 0}
  m_PrefabAsset: {fileID: 0}
  m_GameObject: {fileID: 896364784}
  m_Enabled: 1
  serializedVersion: 2
  m_ClearFlags: 1
  m_BackGroundColor: {r: 0.19215687, g: 0.3019608, b: 0.4745098, a: 0}
  m_projectionMatrixMode: 1
  m_GateFitMode: 2
  m_FOVAxisMode: 0
  m_SensorSize: {x: 36, y: 24}
  m_LensShift: {x: 0, y: 0}
  m_FocalLength: 50
  m_NormalizedViewPortRect:
    serializedVersion: 2
    x: 0
    y: 0
    width: 1
    height: 1
  near clip plane: 0.3
  far clip plane: 1000
  field of view: 60
  orthographic: 0
  orthographic size: 5
  m_Depth: -1
  m_CullingMask:
    serializedVersion: 2
    m_Bits: 4294967295
  m_RenderingPath: -1
  m_TargetTexture: {fileID: 0}
  m_TargetDisplay: 0
  m_TargetEye: 3
  m_HDR: 1
  m_AllowMSAA: 1
  m_AllowDynamicResolution: 0
  m_ForceIntoRT: 0
  m_OcclusionCulling: 1
  m_StereoConvergence: 10
  m_StereoSeparation: 0.022
--- !u!4 &896364789
Transform:
  m_ObjectHideFlags: 0
  m_CorrespondingSourceObject: {fileID: 0}
  m_PrefabInstance: {fileID: 0}
  m_PrefabAsset: {fileID: 0}
  m_GameObject: {fileID: 896364784}
  m_LocalRotation: {x: 0, y: 0, z: 0, w: 1}
  m_LocalPosition: {x: 0, y: 1, z: -4.63}
  m_LocalScale: {x: 1, y: 1, z: 1}
  m_Children: []
  m_Father: {fileID: 0}
  m_RootOrder: 0
  m_LocalEulerAnglesHint: {x: 0, y: 0, z: 0}
--- !u!1 &907125502
GameObject:
  m_ObjectHideFlags: 0
  m_CorrespondingSourceObject: {fileID: 0}
  m_PrefabInstance: {fileID: 0}
  m_PrefabAsset: {fileID: 0}
  serializedVersion: 6
  m_Component:
  - component: {fileID: 907125505}
  - component: {fileID: 907125504}
  - component: {fileID: 907125503}
  m_Layer: 0
  m_Name: Cube (4)
  m_TagString: Untagged
  m_Icon: {fileID: 0}
  m_NavMeshLayer: 0
  m_StaticEditorFlags: 4294967295
  m_IsActive: 1
--- !u!23 &907125503
MeshRenderer:
  m_ObjectHideFlags: 0
  m_CorrespondingSourceObject: {fileID: 0}
  m_PrefabInstance: {fileID: 0}
  m_PrefabAsset: {fileID: 0}
  m_GameObject: {fileID: 907125502}
  m_Enabled: 1
  m_CastShadows: 2
  m_ReceiveShadows: 1
  m_DynamicOccludee: 1
  m_MotionVectors: 1
  m_LightProbeUsage: 1
  m_ReflectionProbeUsage: 1
  m_RayTracingMode: 2
  m_RayTraceProcedural: 0
  m_RenderingLayerMask: 1
  m_RendererPriority: 0
  m_Materials:
  - {fileID: 2100000, guid: 9102022adfbe4184d9e91b0e50ffb5ce, type: 2}
  m_StaticBatchInfo:
    firstSubMesh: 0
    subMeshCount: 0
  m_StaticBatchRoot: {fileID: 0}
  m_ProbeAnchor: {fileID: 0}
  m_LightProbeVolumeOverride: {fileID: 0}
  m_ScaleInLightmap: 1
  m_ReceiveGI: 1
  m_PreserveUVs: 1
  m_IgnoreNormalsForChartDetection: 0
  m_ImportantGI: 0
  m_StitchLightmapSeams: 1
  m_SelectedEditorRenderState: 3
  m_MinimumChartSize: 4
  m_AutoUVMaxDistance: 0.5
  m_AutoUVMaxAngle: 89
  m_LightmapParameters: {fileID: 0}
  m_SortingLayerID: 0
  m_SortingLayer: 0
  m_SortingOrder: 0
  m_AdditionalVertexStreams: {fileID: 0}
--- !u!33 &907125504
MeshFilter:
  m_ObjectHideFlags: 0
  m_CorrespondingSourceObject: {fileID: 0}
  m_PrefabInstance: {fileID: 0}
  m_PrefabAsset: {fileID: 0}
  m_GameObject: {fileID: 907125502}
  m_Mesh: {fileID: 10210, guid: 0000000000000000e000000000000000, type: 0}
--- !u!4 &907125505
Transform:
  m_ObjectHideFlags: 0
  m_CorrespondingSourceObject: {fileID: 0}
  m_PrefabInstance: {fileID: 0}
  m_PrefabAsset: {fileID: 0}
  m_GameObject: {fileID: 907125502}
  m_LocalRotation: {x: -0, y: -0.7071068, z: 0, w: -0.7071068}
  m_LocalPosition: {x: 5, y: 3.269, z: -0}
  m_LocalScale: {x: 10, y: 7.453523, z: 12.5}
  m_Children: []
  m_Father: {fileID: 0}
  m_RootOrder: 7
  m_LocalEulerAnglesHint: {x: 0, y: -270, z: 0}
--- !u!1 &1361227936
GameObject:
  m_ObjectHideFlags: 1
  m_CorrespondingSourceObject: {fileID: 0}
  m_PrefabInstance: {fileID: 0}
  m_PrefabAsset: {fileID: 0}
  serializedVersion: 6
  m_Component:
  - component: {fileID: 1361227938}
  - component: {fileID: 1361227937}
  m_Layer: 0
  m_Name: '!ftraceLightmaps'
  m_TagString: Untagged
  m_Icon: {fileID: 0}
  m_NavMeshLayer: 0
  m_StaticEditorFlags: 0
  m_IsActive: 1
--- !u!114 &1361227937
MonoBehaviour:
  m_ObjectHideFlags: 1
  m_CorrespondingSourceObject: {fileID: 0}
  m_PrefabInstance: {fileID: 0}
  m_PrefabAsset: {fileID: 0}
  m_GameObject: {fileID: 1361227936}
  m_Enabled: 1
  m_EditorHideFlags: 0
  m_Script: {fileID: 11500000, guid: b7fa80e7116296f4eb4f49ec1544ee22, type: 3}
  m_Name: 
  m_EditorClassIdentifier: 
  renderSettingsBounces: 5
  renderSettingsGISamples: 16
  renderSettingsGIBackFaceWeight: 0
  renderSettingsTileSize: 512
  renderSettingsPriority: 2
  renderSettingsTexelsPerUnit: 20
  renderSettingsForceRefresh: 1
  renderSettingsForceRebuildGeometry: 1
  renderSettingsPerformRendering: 1
  renderSettingsUserRenderMode: 0
  renderSettingsDistanceShadowmask: 0
  renderSettingsSettingsMode: 1
  renderSettingsFixSeams: 1
  renderSettingsDenoise: 1
  renderSettingsDenoise2x: 0
  renderSettingsEncode: 1
  renderSettingsEncodeMode: 0
  renderSettingsOverwriteWarning: 0
  renderSettingsAutoAtlas: 1
  renderSettingsUnwrapUVs: 0
  renderSettingsForceDisableUnwrapUVs: 0
  renderSettingsMaxAutoResolution: 4096
  renderSettingsMinAutoResolution: 16
  renderSettingsUnloadScenes: 0
  renderSettingsAdjustSamples: 1
  renderSettingsGILODMode: 0
  renderSettingsGILODModeEnabled: 0
  renderSettingsCheckOverlaps: 0
  renderSettingsSkipOutOfBoundsUVs: 1
  renderSettingsHackEmissiveBoost: 1
  renderSettingsHackIndirectBoost: 1
  renderSettingsTempPath: 
  renderSettingsOutPath: Bakery/examples/lightmaps
  renderSettingsUseScenePath: 0
  renderSettingsHackAOIntensity: 0
  renderSettingsHackAOSamples: 16
  renderSettingsHackAORadius: 4
  renderSettingsShowAOSettings: 0
  renderSettingsShowTasks: 1
  renderSettingsShowTasks2: 0
  renderSettingsShowPaths: 1
  renderSettingsShowNet: 1
  renderSettingsOcclusionProbes: 0
  renderSettingsTexelsPerMap: 0
  renderSettingsTexelsColor: 1
  renderSettingsTexelsMask: 1
  renderSettingsTexelsDir: 1
  renderSettingsShowDirWarning: 1
  renderSettingsRenderDirMode: 4
  renderSettingsShowCheckerSettings: 0
  renderSettingsSamplesWarning: 1
  renderSettingsPrefabWarning: 1
  renderSettingsSplitByScene: 0
  renderSettingsUVPaddingMax: 0
  renderSettingsPostPacking: 1
  renderSettingsHoleFilling: 1
  renderSettingsBeepOnFinish: 0
  renderSettingsExportTerrainAsHeightmap: 1
  renderSettingsRTXMode: 0
  renderSettingsLightProbeMode: 0
  renderSettingsClientMode: 0
  renderSettingsServerAddress: 127.0.0.1
  renderSettingsUnwrapper: 0
  renderSettingsDenoiserType: 100
  renderSettingsExportTerrainTrees: 0
  renderSettingsShowPerf: 1
  renderSettingsSampleDiv: 1
  renderSettingsAtlasPacker: 1
  renderSettingsBatchPoints: 1
  renderSettingsRTPVExport: 1
  renderSettingsRTPVSceneView: 0
  renderSettingsRTPVWidth: 640
  renderSettingsRTPVHeight: 360
  lastBakeTime: 38
  enlightenWarningShown: 0
  enlightenWarningShown2: 0
  lightUIDs: bfeaf8c42fc6ed35cc15aa7dec4bac48245ec10cb054f7fb8f42e1001eb7b0802ba45151989e355c2aecec39d929f97570ec147ced9f2f1b3a195599b33ed2d4ba8c5079f4fb0c1e8c1f268a5a866477ccae42e2f7ce335adebfaafb
  lights:
  - tform:
      e00: 0.86602545
      e01: -0.38302216
      e02: -0.3213938
      e03: 0
      e10: 0
      e11: 0.6427877
      e12: -0.76604444
      e13: 3
      e20: 0.49999994
      e21: 0.66341394
      e22: 0.5566704
      e23: 0
      e30: 0
      e31: 0
      e32: 0
      e33: 1
    color: {r: 1, g: 0.95686275, b: 0.8392157, a: 1}
    intensity: 1
    range: 0
    radius: 0.01
    samples: 16
    samples2: 0
    bitmask: 0
    bakeToIndirect: 0
    selfShadow: 0
    realisticFalloff: 0
    projMode: 0
    cookie: {fileID: 0}
    angle: 30
  - tform:
      e00: 0.9590006
      e01: -0.21709982
      e02: -0.18216899
      e03: 0
      e10: -0.00000011175871
      e11: 0.6427885
      e12: -0.7660438
      e13: 3
      e20: 0.28340408
      e21: 0.7346364
      e22: 0.6164346
      e23: -30.83
      e30: 0
      e31: 0
      e32: 0
      e33: 1
    color: {r: 1, g: 0.95686275, b: 0.8392157, a: 1}
    intensity: 1
    range: 0
    radius: 0.01
    samples: 16
    samples2: 0
    bitmask: 0
    bakeToIndirect: 0
    selfShadow: 0
    realisticFalloff: 0
    projMode: 0
    cookie: {fileID: 0}
    angle: 30
  - tform:
      e00: 1
      e01: 0
      e02: 0
      e03: -4.43
      e10: 0
      e11: 1
      e12: 0
      e13: -0.33
      e20: 0
      e21: 0
      e22: 1
      e23: 0.81
      e30: 0
      e31: 0
      e32: 0
      e33: 1
    color: {r: 0.42171282, g: 0.77905375, b: 0.9558824, a: 1}
    intensity: 1
    range: 10
    radius: 0.05
    samples: 8
    samples2: 0
    bitmask: 0
    bakeToIndirect: 0
    selfShadow: 0
    realisticFalloff: 1
    projMode: 0
    cookie: {fileID: 0}
    angle: 30
  - tform:
      e00: 1
      e01: 0
      e02: 0
      e03: 2.97
      e10: 0
      e11: 1
      e12: 0
      e13: -0.33
      e20: 0
      e21: 0
      e22: 1
      e23: 2.95
      e30: 0
      e31: 0
      e32: 0
      e33: 1
    color: {r: 1, g: 0.7241379, b: 0, a: 1}
    intensity: 1
    range: 10
    radius: 0.05
    samples: 8
    samples2: 0
    bitmask: 0
    bakeToIndirect: 0
    selfShadow: 0
    realisticFalloff: 1
    projMode: 0
    cookie: {fileID: 0}
    angle: 30
  - tform:
      e00: 1
      e01: 0
      e02: 0
      e03: -4.43
      e10: 0
      e11: 1
      e12: 0
      e13: 0.36
      e20: 0
      e21: 0
      e22: 1
      e23: 0.81
      e30: 0
      e31: 0
      e32: 0
      e33: 1
    color: {r: 0.42171282, g: 0.77905375, b: 0.9558824, a: 1}
    intensity: 4
    range: 100
    radius: 0.05
    samples: 8
    samples2: 0
    bitmask: 0
    bakeToIndirect: 0
    selfShadow: 0
    realisticFalloff: 1
    projMode: 0
    cookie: {fileID: 0}
    angle: 30
  - tform:
      e00: 1
      e01: 0
      e02: 0
      e03: 2.97
      e10: 0
      e11: 1
      e12: 0
      e13: 0.36
      e20: 0
      e21: 0
      e22: 1
      e23: 2.95
      e30: 0
      e31: 0
      e32: 0
      e33: 1
    color: {r: 1, g: 0.7241379, b: 0, a: 1}
    intensity: 4
    range: 100
    radius: 0.05
    samples: 8
    samples2: 0
    bitmask: 0
    bakeToIndirect: 0
    selfShadow: 0
    realisticFalloff: 1
    projMode: 0
    cookie: {fileID: 0}
    angle: 30
  - tform:
      e00: 1
      e01: 0
      e02: 0
      e03: 0
      e10: 0
      e11: 1
      e12: 0
      e13: 0
      e20: 0
      e21: 0
      e22: 1
      e23: 0
      e30: 0
      e31: 0
      e32: 0
      e33: 1
    color: {r: 1, g: 1, b: 1, a: 1}
    intensity: 1
    range: 0
    radius: 0
    samples: 32
    samples2: 0
    bitmask: 0
    bakeToIndirect: 1
    selfShadow: 0
    realisticFalloff: 0
    projMode: 0
    cookie: {fileID: 8900000, guid: 6e19027493120c045b35339747708734, type: 3}
    angle: 30
  - tform:
      e00: 1
      e01: 0
      e02: 0
      e03: 0
      e10: 0
      e11: 1
      e12: 0
      e13: 0
      e20: 0
      e21: 0
      e22: 1
      e23: 0
      e30: 0
      e31: 0
      e32: 0
      e33: 1
    color: {r: 1, g: 1, b: 1, a: 1}
    intensity: 2
    range: 0
    radius: 0
    samples: 32
    samples2: 0
    bitmask: 0
    bakeToIndirect: 1
    selfShadow: 0
    realisticFalloff: 0
    projMode: 0
    cookie: {fileID: 8900000, guid: c04139a56038625459f8bb6dafe1ddf4, type: 3}
    angle: 30
  - tform:
      e00: 1
      e01: 0
      e02: 0
      e03: 0
      e10: 0
      e11: -0.00000011920929
      e12: -1.0000001
      e13: 3
      e20: 0
      e21: 1.0000001
      e22: -0.00000011920929
      e23: -30.83
      e30: 0
      e31: 0
      e32: 0
      e33: 1
    color: {r: 1, g: 0.95686275, b: 0.8392157, a: 1}
    intensity: 1
    range: 0
    radius: 0.01
    samples: 16
    samples2: 0
    bitmask: 0
    bakeToIndirect: 0
    selfShadow: 0
    realisticFalloff: 0
    projMode: 0
    cookie: {fileID: 0}
    angle: 30
  - tform:
      e00: 1
      e01: 0
      e02: 0
      e03: 0
      e10: 0
      e11: -0.00000011920929
      e12: -1.0000001
      e13: 3
      e20: 0
      e21: 1.0000001
      e22: -0.00000011920929
      e23: -30.83
      e30: 0
      e31: 0
      e32: 0
      e33: 1
    color: {r: 1, g: 0.95686275, b: 0.8392157, a: 1}
    intensity: 1
    range: 0
    radius: 0.01
    samples: 16
    samples2: 0
    bitmask: 0
    bakeToIndirect: 0
    selfShadow: 0
    realisticFalloff: 0
    projMode: 0
    cookie: {fileID: 0}
    angle: 30
  - tform:
      e00: 1
      e01: 0
      e02: 0
      e03: 0
      e10: 0
      e11: -0.00000011920929
      e12: -1.0000001
      e13: 3
      e20: 0
      e21: 1.0000001
      e22: -0.00000011920929
      e23: -30.83
      e30: 0
      e31: 0
      e32: 0
      e33: 1
    color: {r: 1, g: 0.95686275, b: 0.8392157, a: 1}
    intensity: 1
    range: 0
    radius: 0.01
    samples: 16
    samples2: 0
    bitmask: 0
    bakeToIndirect: 0
    selfShadow: 0
    realisticFalloff: 0
    projMode: 0
    cookie: {fileID: 0}
    angle: 30
  - tform:
      e00: 1
      e01: 0
      e02: 0
      e03: 0
      e10: 0
      e11: -0.00000011920929
      e12: -1.0000001
      e13: 3
      e20: 0
      e21: 1.0000001
      e22: -0.00000011920929
      e23: -30.83
      e30: 0
      e31: 0
      e32: 0
      e33: 1
    color: {r: 1, g: 0.95686275, b: 0.8392157, a: 1}
    intensity: 1
    range: 0
    radius: 0.01
    samples: 16
    samples2: 0
    bitmask: 0
    bakeToIndirect: 0
    selfShadow: 0
    realisticFalloff: 0
    projMode: 0
    cookie: {fileID: 0}
    angle: 30
  - tform:
      e00: -3.4954064
      e01: 0
      e02: 0
      e03: -0.22
      e10: 0
      e11: 3.4954057
      e12: 0
      e13: 1.02
      e20: 0
      e21: 0
      e22: -3.4954057
      e23: -4.75
      e30: 0
      e31: 0
      e32: 0
      e33: 1
    color: {r: 1, g: 1, b: 1, a: 1}
    intensity: 1
    range: 100
    radius: 0
    samples: 256
    samples2: 16
    bitmask: 0
    bakeToIndirect: 1
    selfShadow: 1
    realisticFalloff: 0
    projMode: 0
    cookie: {fileID: 0}
    angle: 30
  - tform:
      e00: 3.4954064
      e01: 0
      e02: 0
      e03: -0.22
      e10: 0
      e11: 3.4954057
      e12: 0
      e13: 1.02
      e20: 0
      e21: 0
      e22: 3.4954057
      e23: -1.629
      e30: 0
      e31: 0
      e32: 0
      e33: 1
    color: {r: 1, g: 1, b: 1, a: 1}
    intensity: 2
    range: 100
    radius: 0
    samples: 256
    samples2: 16
    bitmask: 0
    bakeToIndirect: 1
    selfShadow: 1
    realisticFalloff: 0
    projMode: 0
    cookie: {fileID: 0}
    angle: 30
  - tform:
      e00: 1
      e01: 0
      e02: 0
      e03: -2.73
      e10: 0
      e11: 1
      e12: 0
      e13: 3.23
      e20: 0
      e21: 0
      e22: 1
      e23: 0.08
      e30: 0
      e31: 0
      e32: 0
      e33: 1
    color: {r: 0.42171282, g: 0.77905375, b: 0.9558824, a: 1}
    intensity: 2
    range: 10
    radius: 0.05
    samples: 8
    samples2: 0
    bitmask: 0
    bakeToIndirect: 1
    selfShadow: 0
    realisticFalloff: 0
    projMode: 3
    cookie: {fileID: 102900000, guid: 1363d7983ee08c244a2eb4bf0ced6b2f, type: 3}
    angle: 30
  - tform:
      e00: 1
      e01: 0
      e02: 0
      e03: -2.73
      e10: 0
      e11: 0.40568447
      e12: -0.91401315
      e13: 3.23
      e20: 0
      e21: 0.91401315
      e22: 0.40568447
      e23: 0.08000038
      e30: 0
      e31: 0
      e32: 0
      e33: 1
    color: {r: 0.42171282, g: 0.77905375, b: 0.9558824, a: 1}
    intensity: 2
    range: 10
    radius: 0.05
    samples: 8
    samples2: 0
    bitmask: 0
    bakeToIndirect: 1
    selfShadow: 0
    realisticFalloff: 0
    projMode: 1
    cookie: {fileID: 2800000, guid: 3c142d78f1ac54d4299a13ee35b96408, type: 3}
    angle: 88
  - tform:
      e00: 1
      e01: 0
      e02: 0
      e03: 0
      e10: 0
      e11: -0.00000011920929
      e12: -1.0000001
      e13: 3
      e20: 0
      e21: 1.0000001
      e22: -0.00000011920929
      e23: -30.83
      e30: 0
      e31: 0
      e32: 0
      e33: 1
    color: {r: 0.8392157, g: 0.9733874, b: 1, a: 1}
    intensity: 1
    range: 0
    radius: 0.01
    samples: 16
    samples2: 0
    bitmask: 0
    bakeToIndirect: 0
    selfShadow: 0
    realisticFalloff: 0
    projMode: 0
    cookie: {fileID: 0}
    angle: 30
  - tform:
      e00: 0.89220417
      e01: 0.45163235
      e02: -0.00000037450707
      e03: -2.76
      e10: -0.45163235
      e11: 0.89220417
      e12: 0
      e13: 8.44
      e20: 0.00000033413676
      e21: 0.0000001691395
      e22: 1
      e23: 3.89
      e30: 0
      e31: 0
      e32: 0
      e33: 1
    color: {r: 1, g: 1, b: 1, a: 1}
    intensity: 4
    range: 100
    radius: 0.4
    samples: 8
    samples2: 0
    bitmask: 0
    bakeToIndirect: 0
    selfShadow: 0
    realisticFalloff: 1
    projMode: 3
    cookie: {fileID: 102900000, guid: 1363d7983ee08c244a2eb4bf0ced6b2f, type: 3}
    angle: 30
  - tform:
      e00: 1
      e01: 0
      e02: 0
      e03: 1.05
      e10: 0
      e11: -0.00000011920929
      e12: -1.0000001
      e13: 1.75
      e20: 0
      e21: 1.0000001
      e22: -0.00000011920929
      e23: 0.26
      e30: 0
      e31: 0
      e32: 0
      e33: 1
    color: {r: 1, g: 1, b: 1, a: 1}
    intensity: 4
    range: 100
    radius: 0.05
    samples: 8
    samples2: 0
    bitmask: 0
    bakeToIndirect: 0
    selfShadow: 0
    realisticFalloff: 1
    projMode: 1
    cookie: {fileID: 2800000, guid: 3a66602b8cc7fdd4ab57d07b4176432b, type: 3}
    angle: 157.6
  - tform:
      e00: -3.4954064
      e01: 0
      e02: 0
      e03: -19.62
      e10: 0
      e11: 3.4954057
      e12: 0
      e13: 1.02
      e20: 0
      e21: 0
      e22: -3.4954057
      e23: -4.75
      e30: 0
      e31: 0
      e32: 0
      e33: 1
    color: {r: 1, g: 1, b: 1, a: 1}
    intensity: 2
    range: 100
    radius: 0
    samples: 256
    samples2: 16
    bitmask: 0
    bakeToIndirect: 1
    selfShadow: 1
    realisticFalloff: 0
    projMode: 0
    cookie: {fileID: 0}
    angle: 30
  - tform:
      e00: 1
      e01: 0
      e02: 0
      e03: 2.97
      e10: 0
      e11: 1
      e12: 0
      e13: 0.36
      e20: 0
      e21: 0
      e22: 1
      e23: 2.95
      e30: 0
      e31: 0
      e32: 0
      e33: 1
    color: {r: 1, g: 1, b: 1, a: 1}
    intensity: 2
    range: 100
    radius: 0.05
    samples: 8
    samples2: 0
    bitmask: 0
    bakeToIndirect: 0
    selfShadow: 0
    realisticFalloff: 1
    projMode: 0
    cookie: {fileID: 0}
    angle: 30
  - tform:
      e00: 0.68650484
      e01: -0.3408813
      e02: 0.6422702
      e03: 0
      e10: 0.64840907
      e11: -0.112733126
      e12: -0.752899
      e13: 3
      e20: 0.32905436
      e21: 0.9333226
      e22: 0.14363867
      e23: -30.83
      e30: 0
      e31: 0
      e32: 0
      e33: 1
    color: {r: 1, g: 0, b: 0, a: 1}
    intensity: 1
    range: 0
    radius: 0.01
    samples: 16
    samples2: 0
    bitmask: 0
    bakeToIndirect: 0
    selfShadow: 0
    realisticFalloff: 0
    projMode: 0
    cookie: {fileID: 0}
    angle: 30
  - tform:
      e00: 1
      e01: 0
      e02: 0
      e03: 3.28
      e10: 0
      e11: 1
      e12: 0
      e13: 0.11
      e20: 0
      e21: 0
      e22: 1
      e23: 1.86
      e30: 0
      e31: 0
      e32: 0
      e33: 1
    color: {r: 1, g: 0.51724136, b: 0, a: 1}
    intensity: 4
    range: 3
    radius: 0.05
    samples: 8
    samples2: 0
    bitmask: 0
    bakeToIndirect: 0
    selfShadow: 0
    realisticFalloff: 0
    projMode: 0
    cookie: {fileID: 0}
    angle: 30
  implicitGroups:
  - {fileID: 201665870}
  - {fileID: 201665870}
  - {fileID: 201665870}
  - {fileID: 440257513}
  implicitGroupedObjects:
  - {fileID: 907125502}
  - {fileID: 1694763691}
  - {fileID: 2058874746}
  - {fileID: 2085692056}
  bounds:
  - m_Center: {x: 0, y: 3.2695, z: 0}
    m_Extent: {x: 5.0000005, y: 3.7272615, z: 5.0000005}
  - m_Center: {x: 0, y: -0.457, z: 0.023}
    m_Extent: {x: 5, y: 1.110223e-16, z: 5}
  - m_Center: {x: -0.34, y: 1.37, z: -0.25}
    m_Extent: {x: 1.8718073, y: 1.7999107, z: 1.8718075}
  hasEmissive: 010101
  uvBuffOffsets: 
  uvBuffLengths: 
  uvSrcBuff: []
  uvDestBuff: []
  lmrIndicesOffsets: 
  lmrIndicesLengths: 
  lmrIndicesBuff: 
  lmGroupLODResFlags: 
  lmGroupMinLOD: 
  lmGroupLODMatrix: 
  serverGetFileList: []
  lightmapHasColor: 010101
  lightmapHasMask: 000000
  lightmapHasDir: 000000
  lightmapHasRNM: 010101
  modifiedAssetPathList: []
  modifiedAssets: []
  debugTex: {fileID: 0}
  debugRT: {fileID: 0}
  maps:
  - {fileID: 2800000, guid: e134ce807c66b0f449fd05e446efaf1a, type: 3}
  - {fileID: 2800000, guid: 457d2861877bc034d8a2a74499e6d0cf, type: 3}
  masks: []
  dirMaps: []
  rnmMaps0:
  - {fileID: 2800000, guid: d8d237fd3bb7979478fb222bbf08fa03, type: 3}
  - {fileID: 2800000, guid: e633e4a3ddd70f449850b81654a8f872, type: 3}
  rnmMaps1:
  - {fileID: 2800000, guid: 6b863795a72f6304ab5384aef2e1158e, type: 3}
  - {fileID: 2800000, guid: 4d8533fd89561ed428ab72f0e23e3b2a, type: 3}
  rnmMaps2:
  - {fileID: 2800000, guid: d294d04da8b0cea4b8e2145b37346477, type: 3}
  - {fileID: 2800000, guid: b3b3f060fbefd7942abe7e4a60893072, type: 3}
  mapsMode: 0300000003000000
  bakedRenderers:
  - {fileID: 740399877}
  - {fileID: 907125503}
  - {fileID: 1694763692}
  - {fileID: 2058874747}
  - {fileID: 2085692057}
  bakedIDs: 0200000000000000000000000000000001000000
  bakedScaleOffset:
  - {x: 1, y: 1, z: 0, w: 0}
  - {x: 0.49695742, y: 0.4969574, z: 0.5030426, w: 0}
  - {x: 0.4969574, y: 0.49695742, z: 0, w: 0.5030426}
  - {x: 0.4969574, y: 0.4969574, z: 0, w: 0}
  - {x: 1, y: 1, z: 0, w: 0}
  bakedVertexOffset: 00000000ffffffffffffffffffffffffffffffff
  bakedVertexColorMesh:
  - {fileID: 4300000, guid: c131d839dc7bb0049a7ab1c9cef73ac7, type: 2}
  - {fileID: 0}
  - {fileID: 0}
  - {fileID: 0}
  - {fileID: 0}
  nonBakedRenderers: []
  bakedLights:
  - {fileID: 360072745}
  bakedLightChannels: ffffffff
  bakedRenderersTerrain: []
  bakedIDsTerrain: 
  bakedScaleOffsetTerrain: []
  assetList: []
  uvOverlapAssetList: 
  idremap: 0000000001000000
  usesRealtimeGI: 0
  emptyDirectionTex: {fileID: 0}
--- !u!4 &1361227938
Transform:
  m_ObjectHideFlags: 1
  m_CorrespondingSourceObject: {fileID: 0}
  m_PrefabInstance: {fileID: 0}
  m_PrefabAsset: {fileID: 0}
  m_GameObject: {fileID: 1361227936}
  m_LocalRotation: {x: 0, y: 0, z: 0, w: 1}
  m_LocalPosition: {x: 0, y: 0, z: 0}
  m_LocalScale: {x: 1, y: 1, z: 1}
  m_Children: []
  m_Father: {fileID: 0}
  m_RootOrder: 4
  m_LocalEulerAnglesHint: {x: 0, y: 0, z: 0}
--- !u!1 &1694763691
GameObject:
  m_ObjectHideFlags: 0
  m_CorrespondingSourceObject: {fileID: 0}
  m_PrefabInstance: {fileID: 0}
  m_PrefabAsset: {fileID: 0}
  serializedVersion: 6
  m_Component:
  - component: {fileID: 1694763695}
  - component: {fileID: 1694763694}
  - component: {fileID: 1694763692}
  m_Layer: 0
  m_Name: Cube (2)
  m_TagString: Untagged
  m_Icon: {fileID: 0}
  m_NavMeshLayer: 0
  m_StaticEditorFlags: 4294967295
  m_IsActive: 1
--- !u!23 &1694763692
MeshRenderer:
  m_ObjectHideFlags: 0
  m_CorrespondingSourceObject: {fileID: 0}
  m_PrefabInstance: {fileID: 0}
  m_PrefabAsset: {fileID: 0}
  m_GameObject: {fileID: 1694763691}
  m_Enabled: 1
  m_CastShadows: 2
  m_ReceiveShadows: 1
  m_DynamicOccludee: 1
  m_MotionVectors: 1
  m_LightProbeUsage: 1
  m_ReflectionProbeUsage: 1
  m_RayTracingMode: 2
  m_RayTraceProcedural: 0
  m_RenderingLayerMask: 1
  m_RendererPriority: 0
  m_Materials:
  - {fileID: 2100000, guid: 4e851833e2427ba489628e34b45d1523, type: 2}
  m_StaticBatchInfo:
    firstSubMesh: 0
    subMeshCount: 0
  m_StaticBatchRoot: {fileID: 0}
  m_ProbeAnchor: {fileID: 0}
  m_LightProbeVolumeOverride: {fileID: 0}
  m_ScaleInLightmap: 1
  m_ReceiveGI: 1
  m_PreserveUVs: 1
  m_IgnoreNormalsForChartDetection: 0
  m_ImportantGI: 0
  m_StitchLightmapSeams: 1
  m_SelectedEditorRenderState: 3
  m_MinimumChartSize: 4
  m_AutoUVMaxDistance: 0.5
  m_AutoUVMaxAngle: 89
  m_LightmapParameters: {fileID: 0}
  m_SortingLayerID: 0
  m_SortingLayer: 0
  m_SortingOrder: 0
  m_AdditionalVertexStreams: {fileID: 0}
--- !u!33 &1694763694
MeshFilter:
  m_ObjectHideFlags: 0
  m_CorrespondingSourceObject: {fileID: 0}
  m_PrefabInstance: {fileID: 0}
  m_PrefabAsset: {fileID: 0}
  m_GameObject: {fileID: 1694763691}
  m_Mesh: {fileID: 10210, guid: 0000000000000000e000000000000000, type: 0}
--- !u!4 &1694763695
Transform:
  m_ObjectHideFlags: 0
  m_CorrespondingSourceObject: {fileID: 0}
  m_PrefabInstance: {fileID: 0}
  m_PrefabAsset: {fileID: 0}
  m_GameObject: {fileID: 1694763691}
  m_LocalRotation: {x: 0, y: -0.7071068, z: 0, w: 0.7071068}
  m_LocalPosition: {x: -5, y: 3.269, z: -0}
  m_LocalScale: {x: 10, y: 7.453523, z: 12.5}
  m_Children: []
  m_Father: {fileID: 0}
  m_RootOrder: 6
  m_LocalEulerAnglesHint: {x: 0, y: -90, z: 0}
--- !u!1 &2058874746
GameObject:
  m_ObjectHideFlags: 0
  m_CorrespondingSourceObject: {fileID: 0}
  m_PrefabInstance: {fileID: 0}
  m_PrefabAsset: {fileID: 0}
  serializedVersion: 6
  m_Component:
  - component: {fileID: 2058874749}
  - component: {fileID: 2058874748}
  - component: {fileID: 2058874747}
  m_Layer: 0
  m_Name: Cube (5)
  m_TagString: Untagged
  m_Icon: {fileID: 0}
  m_NavMeshLayer: 0
  m_StaticEditorFlags: 4294967295
  m_IsActive: 1
--- !u!23 &2058874747
MeshRenderer:
  m_ObjectHideFlags: 0
  m_CorrespondingSourceObject: {fileID: 0}
  m_PrefabInstance: {fileID: 0}
  m_PrefabAsset: {fileID: 0}
  m_GameObject: {fileID: 2058874746}
  m_Enabled: 1
  m_CastShadows: 2
  m_ReceiveShadows: 1
  m_DynamicOccludee: 1
  m_MotionVectors: 1
  m_LightProbeUsage: 1
  m_ReflectionProbeUsage: 1
  m_RayTracingMode: 2
  m_RayTraceProcedural: 0
  m_RenderingLayerMask: 1
  m_RendererPriority: 0
  m_Materials:
  - {fileID: 2100000, guid: 3c9d03f39e2645e4aa761808181272f2, type: 2}
  m_StaticBatchInfo:
    firstSubMesh: 0
    subMeshCount: 0
  m_StaticBatchRoot: {fileID: 0}
  m_ProbeAnchor: {fileID: 0}
  m_LightProbeVolumeOverride: {fileID: 0}
  m_ScaleInLightmap: 1
  m_ReceiveGI: 1
  m_PreserveUVs: 1
  m_IgnoreNormalsForChartDetection: 0
  m_ImportantGI: 0
  m_StitchLightmapSeams: 1
  m_SelectedEditorRenderState: 3
  m_MinimumChartSize: 4
  m_AutoUVMaxDistance: 0.5
  m_AutoUVMaxAngle: 89
  m_LightmapParameters: {fileID: 0}
  m_SortingLayerID: 0
  m_SortingLayer: 0
  m_SortingOrder: 0
  m_AdditionalVertexStreams: {fileID: 0}
--- !u!33 &2058874748
MeshFilter:
  m_ObjectHideFlags: 0
  m_CorrespondingSourceObject: {fileID: 0}
  m_PrefabInstance: {fileID: 0}
  m_PrefabAsset: {fileID: 0}
  m_GameObject: {fileID: 2058874746}
  m_Mesh: {fileID: 10210, guid: 0000000000000000e000000000000000, type: 0}
--- !u!4 &2058874749
Transform:
  m_ObjectHideFlags: 0
  m_CorrespondingSourceObject: {fileID: 0}
  m_PrefabInstance: {fileID: 0}
  m_PrefabAsset: {fileID: 0}
  m_GameObject: {fileID: 2058874746}
  m_LocalRotation: {x: 0, y: -1, z: 0, w: 0}
  m_LocalPosition: {x: -0, y: 3.27, z: -4.977}
  m_LocalScale: {x: 10, y: 7.453523, z: 12.5}
  m_Children: []
  m_Father: {fileID: 0}
  m_RootOrder: 8
  m_LocalEulerAnglesHint: {x: 0, y: -180, z: 0}
--- !u!1 &2085692056
GameObject:
  m_ObjectHideFlags: 0
  m_CorrespondingSourceObject: {fileID: 0}
  m_PrefabInstance: {fileID: 0}
  m_PrefabAsset: {fileID: 0}
  serializedVersion: 6
  m_Component:
  - component: {fileID: 2085692060}
  - component: {fileID: 2085692059}
  - component: {fileID: 2085692057}
  m_Layer: 0
  m_Name: Plane
  m_TagString: Untagged
  m_Icon: {fileID: 0}
  m_NavMeshLayer: 0
  m_StaticEditorFlags: 4294967295
  m_IsActive: 1
--- !u!23 &2085692057
MeshRenderer:
  m_ObjectHideFlags: 0
  m_CorrespondingSourceObject: {fileID: 0}
  m_PrefabInstance: {fileID: 0}
  m_PrefabAsset: {fileID: 0}
  m_GameObject: {fileID: 2085692056}
  m_Enabled: 1
  m_CastShadows: 2
  m_ReceiveShadows: 1
  m_DynamicOccludee: 1
  m_MotionVectors: 1
  m_LightProbeUsage: 1
  m_ReflectionProbeUsage: 1
  m_RayTracingMode: 2
  m_RayTraceProcedural: 0
  m_RenderingLayerMask: 1
  m_RendererPriority: 0
  m_Materials:
  - {fileID: 2100000, guid: 4e851833e2427ba489628e34b45d1523, type: 2}
  m_StaticBatchInfo:
    firstSubMesh: 0
    subMeshCount: 0
  m_StaticBatchRoot: {fileID: 0}
  m_ProbeAnchor: {fileID: 0}
  m_LightProbeVolumeOverride: {fileID: 0}
  m_ScaleInLightmap: 1
  m_ReceiveGI: 1
  m_PreserveUVs: 1
  m_IgnoreNormalsForChartDetection: 0
  m_ImportantGI: 0
  m_StitchLightmapSeams: 1
  m_SelectedEditorRenderState: 3
  m_MinimumChartSize: 4
  m_AutoUVMaxDistance: 0.5
  m_AutoUVMaxAngle: 89
  m_LightmapParameters: {fileID: 0}
  m_SortingLayerID: 0
  m_SortingLayer: 0
  m_SortingOrder: 0
  m_AdditionalVertexStreams: {fileID: 0}
--- !u!33 &2085692059
MeshFilter:
  m_ObjectHideFlags: 0
  m_CorrespondingSourceObject: {fileID: 0}
  m_PrefabInstance: {fileID: 0}
  m_PrefabAsset: {fileID: 0}
  m_GameObject: {fileID: 2085692056}
  m_Mesh: {fileID: 10209, guid: 0000000000000000e000000000000000, type: 0}
--- !u!4 &2085692060
Transform:
  m_ObjectHideFlags: 0
  m_CorrespondingSourceObject: {fileID: 0}
  m_PrefabInstance: {fileID: 0}
  m_PrefabAsset: {fileID: 0}
  m_GameObject: {fileID: 2085692056}
  m_LocalRotation: {x: 0, y: 0, z: 0, w: 1}
  m_LocalPosition: {x: 0, y: -0.457, z: 0.023}
  m_LocalScale: {x: 1, y: 1, z: 1}
  m_Children: []
  m_Father: {fileID: 0}
  m_RootOrder: 3
  m_LocalEulerAnglesHint: {x: 0, y: 0, z: 0}
