%YAML 1.1
%TAG !u! tag:unity3d.com,2011:
--- !u!1001 &7973569338847539775
PrefabInstance:
  m_ObjectHideFlags: 0
  serializedVersion: 2
  m_Modification:
    m_TransformParent: {fileID: 0}
    m_Modifications:
    - target: {fileID: -9027837711518173370, guid: b3807c07a18eefd4c9c1713dad9ea4a8, type: 3}
      propertyPath: m_Materials.Array.data[0]
      value: 
      objectReference: {fileID: 2100000, guid: 14bb7f67093d292488e375eb7761ba39, type: 2}
    - target: {fileID: -8679921383154817045, guid: b3807c07a18eefd4c9c1713dad9ea4a8, type: 3}
      propertyPath: m_RootOrder
      value: 0
      objectReference: {fileID: 0}
    - target: {fileID: -8679921383154817045, guid: b3807c07a18eefd4c9c1713dad9ea4a8, type: 3}
      propertyPath: m_LocalPosition.x
      value: 0
      objectReference: {fileID: 0}
    - target: {fileID: -8679921383154817045, guid: b3807c07a18eefd4c9c1713dad9ea4a8, type: 3}
      propertyPath: m_LocalPosition.y
      value: 0
      objectReference: {fileID: 0}
    - target: {fileID: -8679921383154817045, guid: b3807c07a18eefd4c9c1713dad9ea4a8, type: 3}
      propertyPath: m_LocalPosition.z
      value: 0
      objectReference: {fileID: 0}
    - target: {fileID: -8679921383154817045, guid: b3807c07a18eefd4c9c1713dad9ea4a8, type: 3}
      propertyPath: m_LocalRotation.w
      value: 1
      objectReference: {fileID: 0}
    - target: {fileID: -8679921383154817045, guid: b3807c07a18eefd4c9c1713dad9ea4a8, type: 3}
      propertyPath: m_LocalRotation.x
      value: 0
      objectReference: {fileID: 0}
    - target: {fileID: -8679921383154817045, guid: b3807c07a18eefd4c9c1713dad9ea4a8, type: 3}
      propertyPath: m_LocalRotation.y
      value: 0
      objectReference: {fileID: 0}
    - target: {fileID: -8679921383154817045, guid: b3807c07a18eefd4c9c1713dad9ea4a8, type: 3}
      propertyPath: m_LocalRotation.z
      value: 0
      objectReference: {fileID: 0}
    - target: {fileID: -8679921383154817045, guid: b3807c07a18eefd4c9c1713dad9ea4a8, type: 3}
      propertyPath: m_LocalEulerAnglesHint.x
      value: 0
      objectReference: {fileID: 0}
    - target: {fileID: -8679921383154817045, guid: b3807c07a18eefd4c9c1713dad9ea4a8, type: 3}
      propertyPath: m_LocalEulerAnglesHint.y
      value: 0
      objectReference: {fileID: 0}
    - target: {fileID: -8679921383154817045, guid: b3807c07a18eefd4c9c1713dad9ea4a8, type: 3}
      propertyPath: m_LocalEulerAnglesHint.z
      value: 0
      objectReference: {fileID: 0}
    - target: {fileID: -6101960169508691046, guid: b3807c07a18eefd4c9c1713dad9ea4a8, type: 3}
      propertyPath: m_StaticEditorFlags
      value: 4294967295
      objectReference: {fileID: 0}
    - target: {fileID: -6023920491009257130, guid: b3807c07a18eefd4c9c1713dad9ea4a8, type: 3}
      propertyPath: m_StaticEditorFlags
      value: 4294967295
      objectReference: {fileID: 0}
    - target: {fileID: -5984114433718348614, guid: b3807c07a18eefd4c9c1713dad9ea4a8, type: 3}
      propertyPath: m_StaticEditorFlags
      value: 4294967295
      objectReference: {fileID: 0}
    - target: {fileID: -5629916345711334814, guid: b3807c07a18eefd4c9c1713dad9ea4a8, type: 3}
      propertyPath: m_Materials.Array.data[0]
      value: 
      objectReference: {fileID: 2100000, guid: 14bb7f67093d292488e375eb7761ba39, type: 2}
    - target: {fileID: -4546755389090833843, guid: b3807c07a18eefd4c9c1713dad9ea4a8, type: 3}
      propertyPath: m_Materials.Array.data[0]
      value: 
      objectReference: {fileID: 2100000, guid: ecbaeed50b2830c49b553ae34e78b5c6, type: 2}
    - target: {fileID: -4546755389090833843, guid: b3807c07a18eefd4c9c1713dad9ea4a8, type: 3}
      propertyPath: m_Materials.Array.data[1]
      value: 
      objectReference: {fileID: 2100000, guid: 698a07e57404ccf42b285b776da4ebbd, type: 2}
    - target: {fileID: -4200783643809284327, guid: b3807c07a18eefd4c9c1713dad9ea4a8, type: 3}
      propertyPath: m_Materials.Array.data[0]
      value: 
      objectReference: {fileID: 2100000, guid: ecbaeed50b2830c49b553ae34e78b5c6, type: 2}
    - target: {fileID: -4200783643809284327, guid: b3807c07a18eefd4c9c1713dad9ea4a8, type: 3}
      propertyPath: m_Materials.Array.data[1]
      value: 
      objectReference: {fileID: 2100000, guid: 523cb7f3dc546814582ca6fc21d31c6d, type: 2}
    - target: {fileID: -4196226689964043683, guid: b3807c07a18eefd4c9c1713dad9ea4a8, type: 3}
      propertyPath: m_Materials.Array.data[0]
      value: 
      objectReference: {fileID: 2100000, guid: 14bb7f67093d292488e375eb7761ba39, type: 2}
    - target: {fileID: -3912001462704365600, guid: b3807c07a18eefd4c9c1713dad9ea4a8, type: 3}
      propertyPath: m_StaticEditorFlags
      value: 4294967295
      objectReference: {fileID: 0}
    - target: {fileID: -3040425809832328779, guid: b3807c07a18eefd4c9c1713dad9ea4a8, type: 3}
      propertyPath: m_StaticEditorFlags
      value: 4294967295
      objectReference: {fileID: 0}
    - target: {fileID: -1614275084783944001, guid: b3807c07a18eefd4c9c1713dad9ea4a8, type: 3}
      propertyPath: m_StaticEditorFlags
      value: 4294967295
      objectReference: {fileID: 0}
    - target: {fileID: -799460563201998697, guid: b3807c07a18eefd4c9c1713dad9ea4a8, type: 3}
      propertyPath: m_StaticEditorFlags
      value: 4294967295
      objectReference: {fileID: 0}
    - target: {fileID: 919132149155446097, guid: b3807c07a18eefd4c9c1713dad9ea4a8, type: 3}
      propertyPath: m_Name
      value: Panales
      objectReference: {fileID: 0}
    - target: {fileID: 919132149155446097, guid: b3807c07a18eefd4c9c1713dad9ea4a8, type: 3}
      propertyPath: m_IsActive
      value: 1
      objectReference: {fileID: 0}
    - target: {fileID: 919132149155446097, guid: b3807c07a18eefd4c9c1713dad9ea4a8, type: 3}
      propertyPath: m_StaticEditorFlags
      value: 4294967295
      objectReference: {fileID: 0}
    - target: {fileID: 3477535676160149339, guid: b3807c07a18eefd4c9c1713dad9ea4a8, type: 3}
      propertyPath: m_StaticEditorFlags
      value: 4294967295
      objectReference: {fileID: 0}
    - target: {fileID: 5691048736218280130, guid: b3807c07a18eefd4c9c1713dad9ea4a8, type: 3}
      propertyPath: m_Materials.Array.data[0]
      value: 
      objectReference: {fileID: 2100000, guid: 14bb7f67093d292488e375eb7761ba39, type: 2}
    m_RemovedComponents: []
  m_SourcePrefab: {fileID: 100100000, guid: b3807c07a18eefd4c9c1713dad9ea4a8, type: 3}
