%YAML 1.1
%TAG !u! tag:unity3d.com,2011:
--- !u!74 &7400000
AnimationClip:
  m_ObjectHideFlags: 0
  m_CorrespondingSourceObject: {fileID: 0}
  m_PrefabInstance: {fileID: 0}
  m_PrefabAsset: {fileID: 0}
  m_Name: Soldador animador
  serializedVersion: 6
  m_Legacy: 1
  m_Compressed: 0
  m_UseHighQualityCurve: 1
  m_RotationCurves:
  - curve:
      serializedVersion: 2
      m_Curve:
      - serializedVersion: 3
        time: 0
        value: {x: 0.65621614, y: 0.5967989, z: -0.3416042, w: -0.31067353}
        inSlope: {x: 0, y: 0, z: 0, w: 0}
        outSlope: {x: 0, y: 0, z: 0, w: 0}
        tangentMode: 0
        weightedMode: 0
        inWeight: {x: 0.33333334, y: 0.33333334, z: 0.33333334, w: 0.33333334}
        outWeight: {x: 0.33333334, y: 0.33333334, z: 0.33333334, w: 0.33333334}
      - serializedVersion: 3
        time: 0.033333335
        value: {x: 0.65621614, y: 0.5967989, z: -0.3416042, w: -0.31067353}
        inSlope: {x: 0, y: 0, z: 0, w: 0}
        outSlope: {x: 0, y: 0, z: 0, w: 0}
        tangentMode: 0
        weightedMode: 0
        inWeight: {x: 0.33333334, y: 0.33333334, z: 0.33333334, w: 0.33333334}
        outWeight: {x: 0.33333334, y: 0.33333334, z: 0.33333334, w: 0.33333334}
      m_PreInfinity: 2
      m_PostInfinity: 2
      m_RotationOrder: 4
    path: Object006w23eds
  - curve:
      serializedVersion: 2
      m_Curve:
      - serializedVersion: 3
        time: 0
        value: {x: 0.65621614, y: 0.5967989, z: -0.3416042, w: -0.31067353}
        inSlope: {x: 0, y: 0, z: 0, w: 0}
        outSlope: {x: 0, y: 0, z: 0, w: 0}
        tangentMode: 0
        weightedMode: 0
        inWeight: {x: 0.33333334, y: 0.33333334, z: 0.33333334, w: 0.33333334}
        outWeight: {x: 0.33333334, y: 0.33333334, z: 0.33333334, w: 0.33333334}
      - serializedVersion: 3
        time: 0.033333335
        value: {x: 0.65621614, y: 0.5967989, z: -0.3416042, w: -0.31067353}
        inSlope: {x: 0, y: 0, z: 0, w: 0}
        outSlope: {x: 0, y: 0, z: 0, w: 0}
        tangentMode: 0
        weightedMode: 0
        inWeight: {x: 0.33333334, y: 0.33333334, z: 0.33333334, w: 0.33333334}
        outWeight: {x: 0.33333334, y: 0.33333334, z: 0.33333334, w: 0.33333334}
      m_PreInfinity: 2
      m_PostInfinity: 2
      m_RotationOrder: 4
    path: milones
  - curve:
      serializedVersion: 2
      m_Curve:
      - serializedVersion: 3
        time: 0
        value: {x: 0.88697475, y: 0.008014598, z: -0.46172953, w: -0.004172031}
        inSlope: {x: 0, y: 0, z: 0, w: 0}
        outSlope: {x: 0, y: 0, z: 0, w: 0}
        tangentMode: 0
        weightedMode: 0
        inWeight: {x: 0.33333334, y: 0.33333334, z: 0.33333334, w: 0.33333334}
        outWeight: {x: 0.33333334, y: 0.33333334, z: 0.33333334, w: 0.33333334}
      - serializedVersion: 3
        time: 0.033333335
        value: {x: 0.88697475, y: 0.008014598, z: -0.46172953, w: -0.004172031}
        inSlope: {x: 0, y: 0, z: 0, w: 0}
        outSlope: {x: 0, y: 0, z: 0, w: 0}
        tangentMode: 0
        weightedMode: 0
        inWeight: {x: 0.33333334, y: 0.33333334, z: 0.33333334, w: 0.33333334}
        outWeight: {x: 0.33333334, y: 0.33333334, z: 0.33333334, w: 0.33333334}
      m_PreInfinity: 2
      m_PostInfinity: 2
      m_RotationOrder: 4
    path: Object008wqwqwqwas
  - curve:
      serializedVersion: 2
      m_Curve:
      - serializedVersion: 3
        time: 0
        value: {x: -0.024268558, y: 0.0016939017, z: 0.00002192487, w: 0.99970406}
        inSlope: {x: 0.007106121, y: -0.0041067065, z: 0.003345885, w: 0.00017881392}
        outSlope: {x: 0.007106121, y: -0.0041067065, z: 0.003345885, w: 0.00017881392}
        tangentMode: 0
        weightedMode: 0
        inWeight: {x: 0.33333334, y: 0.33333334, z: 0.33333334, w: 0.33333334}
        outWeight: {x: 0.33333334, y: 0.33333334, z: 0.33333334, w: 0.33333334}
      - serializedVersion: 3
        time: 1.6333334
        value: {x: -0.027574645, y: 0.0024052167, z: -0.0014064781, w: 0.9996159}
        inSlope: {x: 0.0030561846, y: 0.0033385816, z: -0.0024497304, w: 0.000072419716}
        outSlope: {x: 0.0030561846, y: 0.0033385816, z: -0.0024497304, w: 0.000072419716}
        tangentMode: 0
        weightedMode: 0
        inWeight: {x: 0.33333334, y: 0.33333334, z: 0.33333334, w: 0.33333334}
        outWeight: {x: 0.33333334, y: 0.33333334, z: 0.33333334, w: 0.33333334}
      - serializedVersion: 3
        time: 3.266667
        value: {x: -0.02692899, y: 0.003478909, z: -0.0026134665, w: 0.9996279}
        inSlope: {x: -0.0044855797, y: -0.000004501785, z: 0.000611415, w: -0.00011891138}
        outSlope: {x: -0.0044855797, y: -0.000004501785, z: 0.000611415, w: -0.00011891138}
        tangentMode: 0
        weightedMode: 0
        inWeight: {x: 0.33333334, y: 0.33333334, z: 0.33333334, w: 0.33333334}
        outWeight: {x: 0.33333334, y: 0.33333334, z: 0.33333334, w: 0.33333334}
      - serializedVersion: 3
        time: 4.9333334
        value: {x: -0.022014782, y: -0.00036103599, z: 0.000611075, w: 0.9997574}
        inSlope: {x: 0.0038044096, y: -0.00045037144, z: 0.0001999828, w: 0.00008314855}
        outSlope: {x: 0.0038044096, y: -0.00045037144, z: 0.0001999828, w: 0.00008314855}
        tangentMode: 0
        weightedMode: 0
        inWeight: {x: 0.33333334, y: 0.33333334, z: 0.33333334, w: 0.33333334}
        outWeight: {x: 0.33333334, y: 0.33333334, z: 0.33333334, w: 0.33333334}
      - serializedVersion: 3
        time: 6.566667
        value: {x: -0.026366042, y: 0.0019528061, z: 0.00049897796, w: 0.99965036}
        inSlope: {x: 0.0017750093, y: 0.0009070956, z: -0.0007644666, w: 0.000045597597}
        outSlope: {x: 0.0017750093, y: 0.0009070956, z: -0.0007644666, w: 0.000045597597}
        tangentMode: 0
        weightedMode: 0
        inWeight: {x: 0.33333334, y: 0.33333334, z: 0.33333334, w: 0.33333334}
        outWeight: {x: 0.33333334, y: 0.33333334, z: 0.33333334, w: 0.33333334}
      - serializedVersion: 3
        time: 8.233334
        value: {x: -0.020952063, y: 0.0032375304, z: -0.0030314343, w: 0.99977064}
        inSlope: {x: -0.001757811, y: 0.0039485064, z: -0.0039920146, w: -0.000061690596}
        outSlope: {x: -0.001757811, y: 0.0039485064, z: -0.0039920146, w: -0.000061690596}
        tangentMode: 0
        weightedMode: 0
        inWeight: {x: 0.33333334, y: 0.33333334, z: 0.33333334, w: 0.33333334}
        outWeight: {x: 0.33333334, y: 0.33333334, z: 0.33333334, w: 0.33333334}
      - serializedVersion: 3
        time: 8.333334
        value: {x: -0.021417033, y: 0.0034138854, z: -0.0033015793, w: 0.9997594}
        inSlope: {x: -0.0063179233, y: -0.0004920377, z: -0.0019378582, w: -0.00013947503}
        outSlope: {x: -0.0063179233, y: -0.0004920377, z: -0.0019378582, w: -0.00013947503}
        tangentMode: 0
        weightedMode: 0
        inWeight: {x: 0.33333334, y: 0.33333334, z: 0.33333334, w: 0.33333334}
        outWeight: {x: 0.33333334, y: 0.33333334, z: 0.33333334, w: 0.33333334}
      m_PreInfinity: 2
      m_PostInfinity: 2
      m_RotationOrder: 4
    path: mixamorig:Hips/mixamorig:Spine
  - curve:
      serializedVersion: 2
      m_Curve:
      - serializedVersion: 3
        time: 0
        value: {x: 0.13999322, y: 0.019322095, z: 0.0062805484, w: 0.989944}
        inSlope: {x: 0.013498663, y: -0.006192382, z: 0.0044826134, w: -0.0018203257}
        outSlope: {x: 0.013498663, y: -0.006192382, z: 0.0044826134, w: -0.0018203257}
        tangentMode: 0
        weightedMode: 0
        inWeight: {x: 0.33333334, y: 0.33333334, z: 0.33333334, w: 0.33333334}
        outWeight: {x: 0.33333334, y: 0.33333334, z: 0.33333334, w: 0.33333334}
      - serializedVersion: 3
        time: 1.3666668
        value: {x: 0.13755955, y: 0.021682173, z: 0.0041277865, w: 0.99024755}
        inSlope: {x: -0.011508012, y: 0.00069027103, z: -0.006602095, w: 0.0016102188}
        outSlope: {x: -0.011508012, y: 0.00069027103, z: -0.006602095, w: 0.0016102188}
        tangentMode: 0
        weightedMode: 0
        inWeight: {x: 0.33333334, y: 0.33333334, z: 0.33333334, w: 0.33333334}
        outWeight: {x: 0.33333334, y: 0.33333334, z: 0.33333334, w: 0.33333334}
      - serializedVersion: 3
        time: 3.0000002
        value: {x: 0.13661592, y: 0.02219404, z: 0.0006243823, w: 0.9903753}
        inSlope: {x: -0.006275034, y: -0.004018288, z: 0.0019142443, w: 0.0009548673}
        outSlope: {x: -0.006275034, y: -0.004018288, z: 0.0019142443, w: 0.0009548673}
        tangentMode: 0
        weightedMode: 0
        inWeight: {x: 0.33333334, y: 0.33333334, z: 0.33333334, w: 0.33333334}
        outWeight: {x: 0.33333334, y: 0.33333334, z: 0.33333334, w: 0.33333334}
      - serializedVersion: 3
        time: 4.6333337
        value: {x: 0.1400786, y: 0.016065048, z: 0.006537342, w: 0.98998845}
        inSlope: {x: 0.016464531, y: 0.0062177014, z: 0.0022822337, w: -0.002446177}
        outSlope: {x: 0.016464531, y: 0.0062177014, z: 0.0022822337, w: -0.002446177}
        tangentMode: 0
        weightedMode: 0
        inWeight: {x: 0.33333334, y: 0.33333334, z: 0.33333334, w: 0.33333334}
        outWeight: {x: 0.33333334, y: 0.33333334, z: 0.33333334, w: 0.33333334}
      - serializedVersion: 3
        time: 6.3
        value: {x: 0.13670993, y: 0.018112617, z: 0.007740303, w: 0.9904153}
        inSlope: {x: -0.0020608325, y: 0.0032629664, z: 0.00066006155, w: 0.00021994134}
        outSlope: {x: -0.0020608325, y: 0.0032629664, z: 0.00066006155, w: 0.00021994134}
        tangentMode: 0
        weightedMode: 0
        inWeight: {x: 0.33333334, y: 0.33333334, z: 0.33333334, w: 0.33333334}
        outWeight: {x: 0.33333334, y: 0.33333334, z: 0.33333334, w: 0.33333334}
      - serializedVersion: 3
        time: 7.933334
        value: {x: 0.14575551, y: 0.020201772, z: 0.0015336934, w: 0.9891132}
        inSlope: {x: -0.006992302, y: -0.002643962, z: -0.0057204533, w: 0.0010934483}
        outSlope: {x: -0.006992302, y: -0.002643962, z: -0.0057204533, w: 0.0010934483}
        tangentMode: 0
        weightedMode: 0
        inWeight: {x: 0.33333334, y: 0.33333334, z: 0.33333334, w: 0.33333334}
        outWeight: {x: 0.33333334, y: 0.33333334, z: 0.33333334, w: 0.33333334}
      - serializedVersion: 3
        time: 8.333334
        value: {x: 0.14398107, y: 0.021934785, z: -0.00079389144, w: 0.98933697}
        inSlope: {x: -0.010459287, y: 0.0008627926, z: -0.0030935723, w: 0.001500251}
        outSlope: {x: -0.010459287, y: 0.0008627926, z: -0.0030935723, w: 0.001500251}
        tangentMode: 0
        weightedMode: 0
        inWeight: {x: 0.33333334, y: 0.33333334, z: 0.33333334, w: 0.33333334}
        outWeight: {x: 0.33333334, y: 0.33333334, z: 0.33333334, w: 0.33333334}
      m_PreInfinity: 2
      m_PostInfinity: 2
      m_RotationOrder: 4
    path: mixamorig:Hips/mixamorig:Spine/mixamorig:Spine1
  - curve:
      serializedVersion: 2
      m_Curve:
      - serializedVersion: 3
        time: 0
        value: {x: 0.012357281, y: 0.022189623, z: -0.00010001143, w: 0.9996774}
        inSlope: {x: 0.013702148, y: -0.006785653, z: 0.003356774, w: -0.00002324581}
        outSlope: {x: 0.013702148, y: -0.006785653, z: 0.003356774, w: -0.00002324581}
        tangentMode: 0
        weightedMode: 0
        inWeight: {x: 0.33333334, y: 0.33333334, z: 0.33333334, w: 0.33333334}
        outWeight: {x: 0.33333334, y: 0.33333334, z: 0.33333334, w: 0.33333334}
      - serializedVersion: 3
        time: 1.3666668
        value: {x: 0.0098337075, y: 0.024784122, z: -0.0018313581, w: 0.9996428}
        inSlope: {x: -0.0118816625, y: 0.0015302766, z: -0.0059856074, w: 0.000067949426}
        outSlope: {x: -0.0118816625, y: 0.0015302766, z: -0.0059856074, w: 0.000067949426}
        tangentMode: 0
        weightedMode: 0
        inWeight: {x: 0.33333334, y: 0.33333334, z: 0.33333334, w: 0.33333334}
        outWeight: {x: 0.33333334, y: 0.33333334, z: 0.33333334, w: 0.33333334}
      - serializedVersion: 3
        time: 3.0000002
        value: {x: 0.008811174, y: 0.025707716, z: -0.005201435, w: 0.99961716}
        inSlope: {x: -0.0061896364, y: -0.00409529, z: 0.0017058377, w: 0.00016897933}
        outSlope: {x: -0.0061896364, y: -0.00409529, z: 0.0017058377, w: 0.00016897933}
        tangentMode: 0
        weightedMode: 0
        inWeight: {x: 0.33333334, y: 0.33333334, z: 0.33333334, w: 0.33333334}
        outWeight: {x: 0.33333334, y: 0.33333334, z: 0.33333334, w: 0.33333334}
      - serializedVersion: 3
        time: 4.6333337
        value: {x: 0.012407418, y: 0.018895965, z: -0.00021785218, w: 0.9997445}
        inSlope: {x: 0.016814757, y: 0.0058378894, z: 0.0024462342, w: -0.0003182891}
        outSlope: {x: 0.016814757, y: 0.0058378894, z: 0.0024462342, w: -0.0003182891}
        tangentMode: 0
        weightedMode: 0
        inWeight: {x: 0.33333334, y: 0.33333334, z: 0.33333334, w: 0.33333334}
        outWeight: {x: 0.33333334, y: 0.33333334, z: 0.33333334, w: 0.33333334}
      - serializedVersion: 3
        time: 6.3
        value: {x: 0.009077567, y: 0.020851424, z: 0.0013100698, w: 0.99974054}
        inSlope: {x: -0.0019297674, y: 0.003167133, z: 0.0010962754, w: -0.000050067953}
        outSlope: {x: -0.0019297674, y: 0.003167133, z: 0.0010962754, w: -0.000050067953}
        tangentMode: 0
        weightedMode: 0
        inWeight: {x: 0.33333334, y: 0.33333334, z: 0.33333334, w: 0.33333334}
        outWeight: {x: 0.33333334, y: 0.33333334, z: 0.33333334, w: 0.33333334}
      - serializedVersion: 3
        time: 7.933334
        value: {x: 0.018093335, y: 0.023545204, z: -0.0049473788, w: 0.9995468}
        inSlope: {x: -0.007183605, y: -0.0018923283, z: -0.005780131, w: 0.00014662757}
        outSlope: {x: -0.007183605, y: -0.0018923283, z: -0.005780131, w: 0.00014662757}
        tangentMode: 0
        weightedMode: 0
        inWeight: {x: 0.33333334, y: 0.33333334, z: 0.33333334, w: 0.33333334}
        outWeight: {x: 0.33333334, y: 0.33333334, z: 0.33333334, w: 0.33333334}
      - serializedVersion: 3
        time: 8.333334
        value: {x: 0.01624449, y: 0.02555708, z: -0.007064447, w: 0.9995164}
        inSlope: {x: -0.010739913, y: 0.0013181537, z: -0.0027270813, w: 0.00012159398}
        outSlope: {x: -0.010739913, y: 0.0013181537, z: -0.0027270813, w: 0.00012159398}
        tangentMode: 0
        weightedMode: 0
        inWeight: {x: 0.33333334, y: 0.33333334, z: 0.33333334, w: 0.33333334}
        outWeight: {x: 0.33333334, y: 0.33333334, z: 0.33333334, w: 0.33333334}
      m_PreInfinity: 2
      m_PostInfinity: 2
      m_RotationOrder: 4
    path: mixamorig:Hips/mixamorig:Spine/mixamorig:Spine1/mixamorig:Spine2
  - curve:
      serializedVersion: 2
      m_Curve:
      - serializedVersion: 3
        time: 0
        value: {x: 0.03592158, y: -0.009719275, z: 0.008263548, w: 0.9992732}
        inSlope: {x: 0.008675158, y: 0.0053240447, z: -0.013353572, w: -0.00015377997}
        outSlope: {x: 0.008675158, y: 0.0053240447, z: -0.013353572, w: -0.00015377997}
        tangentMode: 0
        weightedMode: 0
        inWeight: {x: 0.33333334, y: 0.33333334, z: 0.33333334, w: 0.33333334}
        outWeight: {x: 0.33333334, y: 0.33333334, z: 0.33333334, w: 0.33333334}
      - serializedVersion: 3
        time: 0.9333334
        value: {x: 0.052946605, y: -0.009341455, z: 0.005028767, w: 0.998541}
        inSlope: {x: -0.029891994, y: -0.00896428, z: 0.017734816, w: 0.001409948}
        outSlope: {x: -0.029891994, y: -0.00896428, z: 0.017734816, w: 0.001409948}
        tangentMode: 0
        weightedMode: 0
        inWeight: {x: 0.33333334, y: 0.33333334, z: 0.33333334, w: 0.33333334}
        outWeight: {x: 0.33333334, y: 0.33333334, z: 0.33333334, w: 0.33333334}
      - serializedVersion: 3
        time: 1.9000001
        value: {x: 0.038198944, y: -0.013767346, z: 0.011788956, w: 0.9991058}
        inSlope: {x: 0.022381546, y: 0.006913889, z: -0.0011933048, w: -0.0007456548}
        outSlope: {x: 0.022381546, y: 0.006913889, z: -0.0011933048, w: -0.0007456548}
        tangentMode: 0
        weightedMode: 0
        inWeight: {x: 0.33333334, y: 0.33333334, z: 0.33333334, w: 0.33333334}
        outWeight: {x: 0.33333334, y: 0.33333334, z: 0.33333334, w: 0.33333334}
      - serializedVersion: 3
        time: 3.1666667
        value: {x: 0.050734233, y: -0.012109347, z: 0.013124123, w: 0.99855256}
        inSlope: {x: -0.012714367, y: -0.0048791943, z: -0.003311338, w: 0.00063031755}
        outSlope: {x: -0.012714367, y: -0.0048791943, z: -0.003311338, w: 0.00063031755}
        tangentMode: 0
        weightedMode: 0
        inWeight: {x: 0.33333334, y: 0.33333334, z: 0.33333334, w: 0.33333334}
        outWeight: {x: 0.33333334, y: 0.33333334, z: 0.33333334, w: 0.33333334}
      - serializedVersion: 3
        time: 4.1000004
        value: {x: 0.04825897, y: -0.010908435, z: 0.005016257, w: 0.9987627}
        inSlope: {x: 0.027155325, y: 0.010062666, z: -0.01926884, w: -0.0011041771}
        outSlope: {x: 0.027155325, y: 0.010062666, z: -0.01926884, w: -0.0011041771}
        tangentMode: 0
        weightedMode: 0
        inWeight: {x: 0.33333334, y: 0.33333334, z: 0.33333334, w: 0.33333334}
        outWeight: {x: 0.33333334, y: 0.33333334, z: 0.33333334, w: 0.33333334}
      - serializedVersion: 3
        time: 5.066667
        value: {x: 0.06374185, y: -0.004419803, z: -0.005678615, w: 0.9979405}
        inSlope: {x: 0.012941782, y: -0.0021777183, z: -0.0023077358, w: -0.00084757886}
        outSlope: {x: 0.012941782, y: -0.0021777183, z: -0.0023077358, w: -0.00084757886}
        tangentMode: 0
        weightedMode: 0
        inWeight: {x: 0.33333334, y: 0.33333334, z: 0.33333334, w: 0.33333334}
        outWeight: {x: 0.33333334, y: 0.33333334, z: 0.33333334, w: 0.33333334}
      - serializedVersion: 3
        time: 6.033334
        value: {x: 0.043428987, y: -0.012899335, z: 0.0057268417, w: 0.99895686}
        inSlope: {x: -0.0042927675, y: -0.006314415, z: 0.0050971312, w: 0.000075995995}
        outSlope: {x: -0.0042927675, y: -0.006314415, z: 0.0050971312, w: 0.000075995995}
        tangentMode: 0
        weightedMode: 0
        inWeight: {x: 0.33333334, y: 0.33333334, z: 0.33333334, w: 0.33333334}
        outWeight: {x: 0.33333334, y: 0.33333334, z: 0.33333334, w: 0.33333334}
      - serializedVersion: 3
        time: 7.066667
        value: {x: 0.053760648, y: -0.011074672, z: 0.007820709, w: 0.99846184}
        inSlope: {x: 0.00924128, y: 0.0071396977, z: 0.0002187539, w: -0.00041931908}
        outSlope: {x: 0.00924128, y: 0.0071396977, z: 0.0002187539, w: -0.00041931908}
        tangentMode: 0
        weightedMode: 0
        inWeight: {x: 0.33333334, y: 0.33333334, z: 0.33333334, w: 0.33333334}
        outWeight: {x: 0.33333334, y: 0.33333334, z: 0.33333334, w: 0.33333334}
      - serializedVersion: 3
        time: 8.266667
        value: {x: 0.035790727, y: -0.009716182, z: 0.015754668, w: 0.9991879}
        inSlope: {x: -0.03140206, y: -0.0022023146, z: 0.00840306, w: 0.00097453536}
        outSlope: {x: -0.03140206, y: -0.0022023146, z: 0.00840306, w: 0.00097453536}
        tangentMode: 0
        weightedMode: 0
        inWeight: {x: 0.33333334, y: 0.33333334, z: 0.33333334, w: 0.33333334}
        outWeight: {x: 0.33333334, y: 0.33333334, z: 0.33333334, w: 0.33333334}
      - serializedVersion: 3
        time: 8.333334
        value: {x: 0.034060974, y: -0.009839962, z: 0.016199272, w: 0.99924004}
        inSlope: {x: -0.022033397, y: -0.0022225531, z: 0.005997481, w: 0.000633001}
        outSlope: {x: -0.022033397, y: -0.0022225531, z: 0.005997481, w: 0.000633001}
        tangentMode: 0
        weightedMode: 0
        inWeight: {x: 0.33333334, y: 0.33333334, z: 0.33333334, w: 0.33333334}
        outWeight: {x: 0.33333334, y: 0.33333334, z: 0.33333334, w: 0.33333334}
      m_PreInfinity: 2
      m_PostInfinity: 2
      m_RotationOrder: 4
    path: mixamorig:Hips/mixamorig:Spine/mixamorig:Spine1/mixamorig:Spine2/mixamorig:Neck
  - curve:
      serializedVersion: 2
      m_Curve:
      - serializedVersion: 3
        time: 0
        value: {x: 0.05419024, y: 0.006077439, z: -0.03220298, w: 0.9979927}
        inSlope: {x: -0.005615651, y: 0.0028575442, z: -0.0103229275, w: -0.00004649162}
        outSlope: {x: -0.005615651, y: 0.0028575442, z: -0.0103229275, w: -0.00004649162}
        tangentMode: 0
        weightedMode: 0
        inWeight: {x: 0.33333334, y: 0.33333334, z: 0.33333334, w: 0.33333334}
        outWeight: {x: 0.33333334, y: 0.33333334, z: 0.33333334, w: 0.33333334}
      - serializedVersion: 3
        time: 0.90000004
        value: {x: 0.055549305, y: 0.005462355, z: -0.034230456, w: 0.99785405}
        inSlope: {x: -0.01949279, y: -0.001917412, z: 0.0061963457, w: 0.0013080239}
        outSlope: {x: -0.01949279, y: -0.001917412, z: 0.0061963457, w: 0.0013080239}
        tangentMode: 0
        weightedMode: 0
        inWeight: {x: 0.33333334, y: 0.33333334, z: 0.33333334, w: 0.33333334}
        outWeight: {x: 0.33333334, y: 0.33333334, z: 0.33333334, w: 0.33333334}
      - serializedVersion: 3
        time: 1.5333334
        value: {x: 0.05642734, y: -0.0014400493, z: -0.025056059, w: 0.9980912}
        inSlope: {x: 0.017672421, y: -0.014584561, z: 0.013478309, w: -0.00067502324}
        outSlope: {x: 0.017672421, y: -0.014584561, z: 0.013478309, w: -0.00067502324}
        tangentMode: 0
        weightedMode: 0
        inWeight: {x: 0.33333334, y: 0.33333334, z: 0.33333334, w: 0.33333334}
        outWeight: {x: 0.33333334, y: 0.33333334, z: 0.33333334, w: 0.33333334}
      - serializedVersion: 3
        time: 2.3333335
        value: {x: 0.07150802, y: 0.011336248, z: -0.026438847, w: 0.99702513}
        inSlope: {x: 0.033442818, y: 0.011517277, z: 0.004211799, w: -0.0024175667}
        outSlope: {x: 0.033442818, y: 0.011517277, z: 0.004211799, w: -0.0024175667}
        tangentMode: 0
        weightedMode: 0
        inWeight: {x: 0.33333334, y: 0.33333334, z: 0.33333334, w: 0.33333334}
        outWeight: {x: 0.33333334, y: 0.33333334, z: 0.33333334, w: 0.33333334}
      - serializedVersion: 3
        time: 3.3666668
        value: {x: 0.07514827, y: 0.009150443, z: -0.026787136, w: 0.9967705}
        inSlope: {x: -0.027034905, y: -0.004070717, z: 0.0026799205, w: 0.0021511337}
        outSlope: {x: -0.027034905, y: -0.004070717, z: 0.0026799205, w: 0.0021511337}
        tangentMode: 0
        weightedMode: 0
        inWeight: {x: 0.33333334, y: 0.33333334, z: 0.33333334, w: 0.33333334}
        outWeight: {x: 0.33333334, y: 0.33333334, z: 0.33333334, w: 0.33333334}
      - serializedVersion: 3
        time: 4.066667
        value: {x: 0.09119564, y: 0.011931118, z: -0.03683176, w: 0.9950801}
        inSlope: {x: 0.06936635, y: 0.02403393, z: -0.03647875, w: -0.007976897}
        outSlope: {x: 0.06936635, y: 0.02403393, z: -0.03647875, w: -0.007976897}
        tangentMode: 0
        weightedMode: 0
        inWeight: {x: 0.33333334, y: 0.33333334, z: 0.33333334, w: 0.33333334}
        outWeight: {x: 0.33333334, y: 0.33333334, z: 0.33333334, w: 0.33333334}
      - serializedVersion: 3
        time: 4.9
        value: {x: 0.094751336, y: 0.019486802, z: -0.051792547, w: 0.99396175}
        inSlope: {x: -0.031334937, y: 0.00073447893, z: -0.011230253, w: 0.0023925328}
        outSlope: {x: -0.031334937, y: 0.00073447893, z: -0.011230253, w: 0.0023925328}
        tangentMode: 0
        weightedMode: 0
        inWeight: {x: 0.33333334, y: 0.33333334, z: 0.33333334, w: 0.33333334}
        outWeight: {x: 0.33333334, y: 0.33333334, z: 0.33333334, w: 0.33333334}
      - serializedVersion: 3
        time: 5.466667
        value: {x: 0.08718705, y: 0.016931048, z: -0.050245047, w: 0.99478}
        inSlope: {x: -0.03354284, y: -0.01895939, z: 0.017914712, w: 0.0041627646}
        outSlope: {x: -0.03354284, y: -0.01895939, z: 0.017914712, w: 0.0041627646}
        tangentMode: 0
        weightedMode: 0
        inWeight: {x: 0.33333334, y: 0.33333334, z: 0.33333334, w: 0.33333334}
        outWeight: {x: 0.33333334, y: 0.33333334, z: 0.33333334, w: 0.33333334}
      - serializedVersion: 3
        time: 6.966667
        value: {x: 0.09370304, y: 0.010639397, z: -0.03732349, w: 0.9948435}
        inSlope: {x: 0.014911084, y: 0.02337103, z: -0.011737414, w: -0.002093019}
        outSlope: {x: 0.014911084, y: 0.02337103, z: -0.011737414, w: -0.002093019}
        tangentMode: 0
        weightedMode: 0
        inWeight: {x: 0.33333334, y: 0.33333334, z: 0.33333334, w: 0.33333334}
        outWeight: {x: 0.33333334, y: 0.33333334, z: 0.33333334, w: 0.33333334}
      - serializedVersion: 3
        time: 8.166667
        value: {x: 0.042413075, y: 0.020087957, z: -0.037217736, w: 0.99820465}
        inSlope: {x: -0.036442563, y: 0.00044713638, z: 0.002180684, w: 0.0016173718}
        outSlope: {x: -0.036442563, y: 0.00044713638, z: 0.002180684, w: 0.0016173718}
        tangentMode: 0
        weightedMode: 0
        inWeight: {x: 0.33333334, y: 0.33333334, z: 0.33333334, w: 0.33333334}
        outWeight: {x: 0.33333334, y: 0.33333334, z: 0.33333334, w: 0.33333334}
      - serializedVersion: 3
        time: 8.333334
        value: {x: 0.034728274, y: 0.019642169, z: -0.036345314, w: 0.9985425}
        inSlope: {x: -0.041417245, y: -0.004214322, z: 0.005242315, w: 0.0017210827}
        outSlope: {x: -0.041417245, y: -0.004214322, z: 0.005242315, w: 0.0017210827}
        tangentMode: 0
        weightedMode: 0
        inWeight: {x: 0.33333334, y: 0.33333334, z: 0.33333334, w: 0.33333334}
        outWeight: {x: 0.33333334, y: 0.33333334, z: 0.33333334, w: 0.33333334}
      m_PreInfinity: 2
      m_PostInfinity: 2
      m_RotationOrder: 4
    path: mixamorig:Hips/mixamorig:Spine/mixamorig:Spine1/mixamorig:Spine2/mixamorig:Neck/mixamorig:Head
  - curve:
      serializedVersion: 2
      m_Curve:
      - serializedVersion: 3
        time: 0
        value: {x: 0, y: -0, z: -0, w: 1}
        inSlope: {x: 0, y: 0, z: 0, w: 0}
        outSlope: {x: 0, y: 0, z: 0, w: 0}
        tangentMode: 0
        weightedMode: 0
        inWeight: {x: 0.33333334, y: 0.33333334, z: 0.33333334, w: 0.33333334}
        outWeight: {x: 0.33333334, y: 0.33333334, z: 0.33333334, w: 0.33333334}
      - serializedVersion: 3
        time: 0.033333335
        value: {x: 0, y: -0, z: -0, w: 1}
        inSlope: {x: 0, y: 0, z: 0, w: 0}
        outSlope: {x: 0, y: 0, z: 0, w: 0}
        tangentMode: 0
        weightedMode: 0
        inWeight: {x: 0.33333334, y: 0.33333334, z: 0.33333334, w: 0.33333334}
        outWeight: {x: 0.33333334, y: 0.33333334, z: 0.33333334, w: 0.33333334}
      m_PreInfinity: 2
      m_PostInfinity: 2
      m_RotationOrder: 4
    path: mixamorig:Hips/mixamorig:Spine/mixamorig:Spine1/mixamorig:Spine2/mixamorig:Neck/mixamorig:Head/mixamorig:HeadTop_End
  - curve:
      serializedVersion: 2
      m_Curve:
      - serializedVersion: 3
        time: 0
        value: {x: 0.49670756, y: -0.49576283, z: 0.54910094, w: 0.45386013}
        inSlope: {x: 0.010249614, y: 0.0038328764, z: -0.026113985, w: 0.024510918}
        outSlope: {x: 0.010249614, y: 0.0038328764, z: -0.026113985, w: 0.024510918}
        tangentMode: 0
        weightedMode: 0
        inWeight: {x: 0.33333334, y: 0.33333334, z: 0.33333334, w: 0.33333334}
        outWeight: {x: 0.33333334, y: 0.33333334, z: 0.33333334, w: 0.33333334}
      - serializedVersion: 3
        time: 0.43333337
        value: {x: 0.5098955, y: -0.4871855, z: 0.53145677, w: 0.46926597}
        inSlope: {x: 0.043624345, y: 0.034751598, z: -0.022376778, w: 0.013975651}
        outSlope: {x: 0.043624345, y: 0.034751598, z: -0.022376778, w: 0.013975651}
        tangentMode: 0
        weightedMode: 0
        inWeight: {x: 0.33333334, y: 0.33333334, z: 0.33333334, w: 0.33333334}
        outWeight: {x: 0.33333334, y: 0.33333334, z: 0.33333334, w: 0.33333334}
      - serializedVersion: 3
        time: 1
        value: {x: 0.5115405, y: -0.48500112, z: 0.5366222, w: 0.46382862}
        inSlope: {x: -0.02098649, y: -0.01191705, z: 0.043588564, w: -0.03967522}
        outSlope: {x: -0.02098649, y: -0.01191705, z: 0.043588564, w: -0.03967522}
        tangentMode: 0
        weightedMode: 0
        inWeight: {x: 0.33333334, y: 0.33333334, z: 0.33333334, w: 0.33333334}
        outWeight: {x: 0.33333334, y: 0.33333334, z: 0.33333334, w: 0.33333334}
      - serializedVersion: 3
        time: 1.3333334
        value: {x: 0.5050877, y: -0.4884402, z: 0.54995936, w: 0.45150563}
        inSlope: {x: -0.0526535, y: -0.027777819, z: 0.10266505, w: -0.09610482}
        outSlope: {x: -0.0526535, y: -0.027777819, z: 0.10266505, w: -0.09610482}
        tangentMode: 0
        weightedMode: 0
        inWeight: {x: 0.33333334, y: 0.33333334, z: 0.33333334, w: 0.33333334}
        outWeight: {x: 0.33333334, y: 0.33333334, z: 0.33333334, w: 0.33333334}
      - serializedVersion: 3
        time: 1.7333335
        value: {x: 0.49887678, y: -0.4943274, z: 0.5468273, w: 0.4557875}
        inSlope: {x: 0.021489397, y: 0.021112546, z: 0.016682435, w: -0.0206445}
        outSlope: {x: 0.021489397, y: 0.021112546, z: 0.016682435, w: -0.0206445}
        tangentMode: 0
        weightedMode: 0
        inWeight: {x: 0.33333334, y: 0.33333334, z: 0.33333334, w: 0.33333334}
        outWeight: {x: 0.33333334, y: 0.33333334, z: 0.33333334, w: 0.33333334}
      - serializedVersion: 3
        time: 2.3000002
        value: {x: 0.5125086, y: -0.48138234, z: 0.5530423, w: 0.44693425}
        inSlope: {x: 0.03422144, y: 0.024469815, z: -0.02977076, w: 0.023982547}
        outSlope: {x: 0.03422144, y: 0.024469815, z: -0.02977076, w: 0.023982547}
        tangentMode: 0
        weightedMode: 0
        inWeight: {x: 0.33333334, y: 0.33333334, z: 0.33333334, w: 0.33333334}
        outWeight: {x: 0.33333334, y: 0.33333334, z: 0.33333334, w: 0.33333334}
      - serializedVersion: 3
        time: 2.7
        value: {x: 0.5135214, y: -0.4803406, z: 0.55386734, w: 0.44586974}
        inSlope: {x: -0.012386402, y: -0.01707445, z: -0.03050739, w: 0.033797108}
        outSlope: {x: -0.012386402, y: -0.01707445, z: -0.03050739, w: 0.033797108}
        tangentMode: 0
        weightedMode: 0
        inWeight: {x: 0.33333334, y: 0.33333334, z: 0.33333334, w: 0.33333334}
        outWeight: {x: 0.33333334, y: 0.33333334, z: 0.33333334, w: 0.33333334}
      - serializedVersion: 3
        time: 3.2000003
        value: {x: 0.50602555, y: -0.4871137, z: 0.5528754, w: 0.44831598}
        inSlope: {x: -0.015166972, y: -0.01568463, z: -0.01342261, w: 0.016637677}
        outSlope: {x: -0.015166972, y: -0.01568463, z: -0.01342261, w: 0.016637677}
        tangentMode: 0
        weightedMode: 0
        inWeight: {x: 0.33333334, y: 0.33333334, z: 0.33333334, w: 0.33333334}
        outWeight: {x: 0.33333334, y: 0.33333334, z: 0.33333334, w: 0.33333334}
      - serializedVersion: 3
        time: 3.5666668
        value: {x: 0.493754, y: -0.49611908, z: 0.56077737, w: 0.44226864}
        inSlope: {x: -0.024056308, y: -0.024988825, z: -0.024107717, w: 0.029385863}
        outSlope: {x: -0.024056308, y: -0.024988825, z: -0.024107717, w: 0.029385863}
        tangentMode: 0
        weightedMode: 0
        inWeight: {x: 0.33333334, y: 0.33333334, z: 0.33333334, w: 0.33333334}
        outWeight: {x: 0.33333334, y: 0.33333334, z: 0.33333334, w: 0.33333334}
      - serializedVersion: 3
        time: 4.033334
        value: {x: 0.48808545, y: -0.50308675, z: 0.5487094, w: 0.45562524}
        inSlope: {x: -0.013981374, y: -0.013811493, z: -0.012410455, w: 0.014685847}
        outSlope: {x: -0.013981374, y: -0.013811493, z: -0.012410455, w: 0.014685847}
        tangentMode: 0
        weightedMode: 0
        inWeight: {x: 0.33333334, y: 0.33333334, z: 0.33333334, w: 0.33333334}
        outWeight: {x: 0.33333334, y: 0.33333334, z: 0.33333334, w: 0.33333334}
      - serializedVersion: 3
        time: 4.566667
        value: {x: 0.49518466, y: -0.49868354, z: 0.5391976, w: 0.46408275}
        inSlope: {x: 0.02563032, y: 0.019112546, z: -0.016458943, w: 0.012322526}
        outSlope: {x: 0.02563032, y: 0.019112546, z: -0.016458943, w: 0.012322526}
        tangentMode: 0
        weightedMode: 0
        inWeight: {x: 0.33333334, y: 0.33333334, z: 0.33333334, w: 0.33333334}
        outWeight: {x: 0.33333334, y: 0.33333334, z: 0.33333334, w: 0.33333334}
      - serializedVersion: 3
        time: 5.1000004
        value: {x: 0.5144905, y: -0.48460808, z: 0.5227823, w: 0.47660586}
        inSlope: {x: -0.005338495, y: -0.0073577533, z: -0.019189436, w: 0.019344557}
        outSlope: {x: -0.005338495, y: -0.0073577533, z: -0.019189436, w: 0.019344557}
        tangentMode: 0
        weightedMode: 0
        inWeight: {x: 0.33333334, y: 0.33333334, z: 0.33333334, w: 0.33333334}
        outWeight: {x: 0.33333334, y: 0.33333334, z: 0.33333334, w: 0.33333334}
      - serializedVersion: 3
        time: 5.6333337
        value: {x: 0.49682137, y: -0.4991601, z: 0.52609205, w: 0.47669157}
        inSlope: {x: -0.020301212, y: -0.019618142, z: -0.02086671, w: 0.02365353}
        outSlope: {x: -0.020301212, y: -0.019618142, z: -0.02086671, w: 0.02365353}
        tangentMode: 0
        weightedMode: 0
        inWeight: {x: 0.33333334, y: 0.33333334, z: 0.33333334, w: 0.33333334}
        outWeight: {x: 0.33333334, y: 0.33333334, z: 0.33333334, w: 0.33333334}
      - serializedVersion: 3
        time: 6.0000005
        value: {x: 0.48924237, y: -0.50623304, z: 0.5194302, w: 0.4843163}
        inSlope: {x: -0.02283635, y: -0.020693261, z: -0.016463414, w: 0.019115675}
        outSlope: {x: -0.02283635, y: -0.020693261, z: -0.016463414, w: 0.019115675}
        tangentMode: 0
        weightedMode: 0
        inWeight: {x: 0.33333334, y: 0.33333334, z: 0.33333334, w: 0.33333334}
        outWeight: {x: 0.33333334, y: 0.33333334, z: 0.33333334, w: 0.33333334}
      - serializedVersion: 3
        time: 6.6000004
        value: {x: 0.48185724, y: -0.51100206, z: 0.52903897, w: 0.47624394}
        inSlope: {x: 0.0162846, y: 0.013372613, z: 0.0012883556, w: -0.0035628711}
        outSlope: {x: 0.0162846, y: 0.013372613, z: 0.0012883556, w: -0.0035628711}
        tangentMode: 0
        weightedMode: 0
        inWeight: {x: 0.33333334, y: 0.33333334, z: 0.33333334, w: 0.33333334}
        outWeight: {x: 0.33333334, y: 0.33333334, z: 0.33333334, w: 0.33333334}
      - serializedVersion: 3
        time: 7.166667
        value: {x: 0.50177383, y: -0.4934899, z: 0.536853, w: 0.4652737}
        inSlope: {x: 0.025405014, y: 0.03052938, z: 0.060820937, w: -0.06519696}
        outSlope: {x: 0.025405014, y: 0.03052938, z: 0.060820937, w: -0.06519696}
        tangentMode: 0
        weightedMode: 0
        inWeight: {x: 0.33333334, y: 0.33333334, z: 0.33333334, w: 0.33333334}
        outWeight: {x: 0.33333334, y: 0.33333334, z: 0.33333334, w: 0.33333334}
      - serializedVersion: 3
        time: 7.7333336
        value: {x: 0.51486474, y: -0.48027942, z: 0.54890347, w: 0.45050076}
        inSlope: {x: 0.0018078105, y: 0.002255293, z: 0.004323725, w: -0.0049263285}
        outSlope: {x: 0.0018078105, y: 0.002255293, z: 0.004323725, w: -0.0049263285}
        tangentMode: 0
        weightedMode: 0
        inWeight: {x: 0.33333334, y: 0.33333334, z: 0.33333334, w: 0.33333334}
        outWeight: {x: 0.33333334, y: 0.33333334, z: 0.33333334, w: 0.33333334}
      - serializedVersion: 3
        time: 8.166667
        value: {x: 0.51082087, y: -0.48327306, z: 0.55180705, w: 0.44835067}
        inSlope: {x: -0.024729088, y: -0.012314016, z: 0.049458247, w: -0.045945443}
        outSlope: {x: -0.024729088, y: -0.012314016, z: 0.049458247, w: -0.045945443}
        tangentMode: 0
        weightedMode: 0
        inWeight: {x: 0.33333334, y: 0.33333334, z: 0.33333334, w: 0.33333334}
        outWeight: {x: 0.33333334, y: 0.33333334, z: 0.33333334, w: 0.33333334}
      - serializedVersion: 3
        time: 8.333334
        value: {x: 0.50692755, y: -0.48604125, z: 0.5551094, w: 0.44569284}
        inSlope: {x: -0.02352301, y: -0.020405829, z: 0.00008584224, w: 0.004392113}
        outSlope: {x: -0.02352301, y: -0.020405829, z: 0.00008584224, w: 0.004392113}
        tangentMode: 0
        weightedMode: 0
        inWeight: {x: 0.33333334, y: 0.33333334, z: 0.33333334, w: 0.33333334}
        outWeight: {x: 0.33333334, y: 0.33333334, z: 0.33333334, w: 0.33333334}
      m_PreInfinity: 2
      m_PostInfinity: 2
      m_RotationOrder: 4
    path: mixamorig:Hips/mixamorig:Spine/mixamorig:Spine1/mixamorig:Spine2/mixamorig:LeftShoulder
  - curve:
      serializedVersion: 2
      m_Curve:
      - serializedVersion: 3
        time: 0
        value: {x: 0.4866444, y: -0.16137686, z: -0.12990206, w: 0.84868145}
        inSlope: {x: 0.013946592, y: 0.003620535, z: -0.010006874, w: -0.0088477135}
        outSlope: {x: 0.013946592, y: 0.003620535, z: -0.010006874, w: -0.0088477135}
        tangentMode: 0
        weightedMode: 0
        inWeight: {x: 0.33333334, y: 0.33333334, z: 0.33333334, w: 0.33333334}
        outWeight: {x: 0.33333334, y: 0.33333334, z: 0.33333334, w: 0.33333334}
      - serializedVersion: 3
        time: 0.40000004
        value: {x: 0.4977525, y: -0.15415354, z: -0.11147838, w: 0.8461984}
        inSlope: {x: -0.0061467253, y: 0.035590667, z: 0.031073049, w: 0.014176363}
        outSlope: {x: -0.0061467253, y: 0.035590667, z: 0.031073049, w: 0.014176363}
        tangentMode: 0
        weightedMode: 0
        inWeight: {x: 0.33333334, y: 0.33333334, z: 0.33333334, w: 0.33333334}
        outWeight: {x: 0.33333334, y: 0.33333334, z: 0.33333334, w: 0.33333334}
      - serializedVersion: 3
        time: 0.7666667
        value: {x: 0.5010995, y: -0.14895333, z: -0.09751887, w: 0.84687793}
        inSlope: {x: -0.02607552, y: -0.01366495, z: -0.016748928, w: 0.011088243}
        outSlope: {x: -0.02607552, y: -0.01366495, z: -0.016748928, w: 0.011088243}
        tangentMode: 0
        weightedMode: 0
        inWeight: {x: 0.33333334, y: 0.33333334, z: 0.33333334, w: 0.33333334}
        outWeight: {x: 0.33333334, y: 0.33333334, z: 0.33333334, w: 0.33333334}
      - serializedVersion: 3
        time: 1.2
        value: {x: 0.48798415, y: -0.15931557, z: -0.121195056, w: 0.84958917}
        inSlope: {x: -0.008901367, y: 0.0018811243, z: -0.016777234, w: 0.003066662}
        outSlope: {x: -0.008901367, y: 0.0018811243, z: -0.016777234, w: 0.003066662}
        tangentMode: 0
        weightedMode: 0
        inWeight: {x: 0.33333334, y: 0.33333334, z: 0.33333334, w: 0.33333334}
        outWeight: {x: 0.33333334, y: 0.33333334, z: 0.33333334, w: 0.33333334}
      - serializedVersion: 3
        time: 1.5000001
        value: {x: 0.4828594, y: -0.15962814, z: -0.12930657, w: 0.8512611}
        inSlope: {x: 0.090530306, y: 0.07994229, z: 0.109812476, w: -0.019804526}
        outSlope: {x: 0.090530306, y: 0.07994229, z: 0.109812476, w: -0.019804526}
        tangentMode: 0
        weightedMode: 0
        inWeight: {x: 0.33333334, y: 0.33333334, z: 0.33333334, w: 0.33333334}
        outWeight: {x: 0.33333334, y: 0.33333334, z: 0.33333334, w: 0.33333334}
      - serializedVersion: 3
        time: 1.7666668
        value: {x: 0.49098828, y: -0.15100932, z: -0.11741112, w: 0.8499067}
        inSlope: {x: -0.030252665, y: -0.025470952, z: -0.02336508, w: 0.009719441}
        outSlope: {x: -0.030252665, y: -0.025470952, z: -0.02336508, w: 0.009719441}
        tangentMode: 0
        weightedMode: 0
        inWeight: {x: 0.33333334, y: 0.33333334, z: 0.33333334, w: 0.33333334}
        outWeight: {x: 0.33333334, y: 0.33333334, z: 0.33333334, w: 0.33333334}
      - serializedVersion: 3
        time: 2.2
        value: {x: 0.47410312, y: -0.17549576, z: -0.14194228, w: 0.8510463}
        inSlope: {x: -0.0026249913, y: -0.049104363, z: -0.046361357, w: -0.016358808}
        outSlope: {x: -0.0026249913, y: -0.049104363, z: -0.046361357, w: -0.016358808}
        tangentMode: 0
        weightedMode: 0
        inWeight: {x: 0.33333334, y: 0.33333334, z: 0.33333334, w: 0.33333334}
        outWeight: {x: 0.33333334, y: 0.33333334, z: 0.33333334, w: 0.33333334}
      - serializedVersion: 3
        time: 2.5333335
        value: {x: 0.47122055, y: -0.18145402, z: -0.14843163, w: 0.85029036}
        inSlope: {x: -0.02132403, y: -0.0053143553, z: -0.00978292, w: 0.008988985}
        outSlope: {x: -0.02132403, y: -0.0053143553, z: -0.00978292, w: 0.008988985}
        tangentMode: 0
        weightedMode: 0
        inWeight: {x: 0.33333334, y: 0.33333334, z: 0.33333334, w: 0.33333334}
        outWeight: {x: 0.33333334, y: 0.33333334, z: 0.33333334, w: 0.33333334}
      - serializedVersion: 3
        time: 2.8666668
        value: {x: 0.47768512, y: -0.16578229, z: -0.1281203, w: 0.85318136}
        inSlope: {x: -0.0104749305, y: 0.02780291, z: 0.05501931, w: 0.019519348}
        outSlope: {x: -0.0104749305, y: 0.02780291, z: 0.05501931, w: 0.019519348}
        tangentMode: 0
        weightedMode: 0
        inWeight: {x: 0.33333334, y: 0.33333334, z: 0.33333334, w: 0.33333334}
        outWeight: {x: 0.33333334, y: 0.33333334, z: 0.33333334, w: 0.33333334}
      - serializedVersion: 3
        time: 3.3666668
        value: {x: 0.4764139, y: -0.16494606, z: -0.11493062, w: 0.8559285}
        inSlope: {x: -0.038002916, y: -0.064451754, z: -0.04815028, w: 0.002306702}
        outSlope: {x: -0.038002916, y: -0.064451754, z: -0.04815028, w: 0.002306702}
        tangentMode: 0
        weightedMode: 0
        inWeight: {x: 0.33333334, y: 0.33333334, z: 0.33333334, w: 0.33333334}
        outWeight: {x: 0.33333334, y: 0.33333334, z: 0.33333334, w: 0.33333334}
      - serializedVersion: 3
        time: 3.8000002
        value: {x: 0.48504364, y: -0.16454768, z: -0.10286646, w: 0.85268706}
        inSlope: {x: 0.01080082, y: 0.014070882, z: 0.02693611, w: -0.0001850726}
        outSlope: {x: 0.01080082, y: 0.014070882, z: 0.02693611, w: -0.0001850726}
        tangentMode: 0
        weightedMode: 0
        inWeight: {x: 0.33333334, y: 0.33333334, z: 0.33333334, w: 0.33333334}
        outWeight: {x: 0.33333334, y: 0.33333334, z: 0.33333334, w: 0.33333334}
      - serializedVersion: 3
        time: 4.3333335
        value: {x: 0.49077514, y: -0.15857205, z: -0.10118426, w: 0.85073876}
        inSlope: {x: -0.01671867, y: -0.04064422, z: -0.108253494, w: -0.010819147}
        outSlope: {x: -0.01671867, y: -0.04064422, z: -0.108253494, w: -0.010819147}
        tangentMode: 0
        weightedMode: 0
        inWeight: {x: 0.33333334, y: 0.33333334, z: 0.33333334, w: 0.33333334}
        outWeight: {x: 0.33333334, y: 0.33333334, z: 0.33333334, w: 0.33333334}
      - serializedVersion: 3
        time: 4.766667
        value: {x: 0.4896574, y: -0.1651971, z: -0.13306482, w: 0.8457182}
        inSlope: {x: 0.00036835705, y: -0.00042803632, z: -0.04983571, w: -0.008126207}
        outSlope: {x: 0.00036835705, y: -0.00042803632, z: -0.04983571, w: -0.008126207}
        tangentMode: 0
        weightedMode: 0
        inWeight: {x: 0.33333334, y: 0.33333334, z: 0.33333334, w: 0.33333334}
        outWeight: {x: 0.33333334, y: 0.33333334, z: 0.33333334, w: 0.33333334}
      - serializedVersion: 3
        time: 5.1333337
        value: {x: 0.49588737, y: -0.15525496, z: -0.124875985, w: 0.84522045}
        inSlope: {x: 0.036634095, y: 0.013138366, z: 0.01966821, w: -0.016158536}
        outSlope: {x: 0.036634095, y: 0.013138366, z: 0.01966821, w: -0.016158536}
        tangentMode: 0
        weightedMode: 0
        inWeight: {x: 0.33333334, y: 0.33333334, z: 0.33333334, w: 0.33333334}
        outWeight: {x: 0.33333334, y: 0.33333334, z: 0.33333334, w: 0.33333334}
      - serializedVersion: 3
        time: 5.6000004
        value: {x: 0.5030936, y: -0.1524191, z: -0.114871554, w: 0.8428937}
        inSlope: {x: 0.034925077, y: 0.04461971, z: 0.09527551, w: 0.00021725916}
        outSlope: {x: 0.034925077, y: 0.04461971, z: 0.09527551, w: 0.00021725916}
        tangentMode: 0
        weightedMode: 0
        inWeight: {x: 0.33333334, y: 0.33333334, z: 0.33333334, w: 0.33333334}
        outWeight: {x: 0.33333334, y: 0.33333334, z: 0.33333334, w: 0.33333334}
      - serializedVersion: 3
        time: 6.0000005
        value: {x: 0.5211694, y: -0.1434518, z: -0.08763103, w: 0.8367346}
        inSlope: {x: 0.042682033, y: 0.0055137333, z: 0.046628684, w: -0.020720977}
        outSlope: {x: 0.042682033, y: 0.0055137333, z: 0.046628684, w: -0.020720977}
        tangentMode: 0
        weightedMode: 0
        inWeight: {x: 0.33333334, y: 0.33333334, z: 0.33333334, w: 0.33333334}
        outWeight: {x: 0.33333334, y: 0.33333334, z: 0.33333334, w: 0.33333334}
      - serializedVersion: 3
        time: 6.566667
        value: {x: 0.5180844, y: -0.13956216, z: -0.087065265, w: 0.8393632}
        inSlope: {x: 0.00011622906, y: 0.0029383628, z: -0.0018659253, w: 0.00022351759}
        outSlope: {x: 0.00011622906, y: 0.0029383628, z: -0.0018659253, w: 0.00022351759}
        tangentMode: 0
        weightedMode: 0
        inWeight: {x: 0.33333334, y: 0.33333334, z: 0.33333334, w: 0.33333334}
        outWeight: {x: 0.33333334, y: 0.33333334, z: 0.33333334, w: 0.33333334}
      - serializedVersion: 3
        time: 6.9000006
        value: {x: 0.5166298, y: -0.14358056, z: -0.09129657, w: 0.8391324}
        inSlope: {x: -0.029578414, y: -0.014993491, z: -0.008630134, w: 0.01468147}
        outSlope: {x: -0.029578414, y: -0.014993491, z: -0.008630134, w: 0.01468147}
        tangentMode: 0
        weightedMode: 0
        inWeight: {x: 0.33333334, y: 0.33333334, z: 0.33333334, w: 0.33333334}
        outWeight: {x: 0.33333334, y: 0.33333334, z: 0.33333334, w: 0.33333334}
      - serializedVersion: 3
        time: 7.3666673
        value: {x: 0.48739642, y: -0.15967824, z: -0.12663783, w: 0.84906447}
        inSlope: {x: -0.039133646, y: -0.024017278, z: -0.092361346, w: 0.0041377195}
        outSlope: {x: -0.039133646, y: -0.024017278, z: -0.092361346, w: 0.0041377195}
        tangentMode: 0
        weightedMode: 0
        inWeight: {x: 0.33333334, y: 0.33333334, z: 0.33333334, w: 0.33333334}
        outWeight: {x: 0.33333334, y: 0.33333334, z: 0.33333334, w: 0.33333334}
      - serializedVersion: 3
        time: 7.966667
        value: {x: 0.48275825, y: -0.16301663, z: -0.14207765, w: 0.84863657}
        inSlope: {x: 0.02653615, y: 0.029811632, z: 0.056273617, w: 0.00007244153}
        outSlope: {x: 0.02653615, y: 0.029811632, z: 0.056273617, w: 0.00007244153}
        tangentMode: 0
        weightedMode: 0
        inWeight: {x: 0.33333334, y: 0.33333334, z: 0.33333334, w: 0.33333334}
        outWeight: {x: 0.33333334, y: 0.33333334, z: 0.33333334, w: 0.33333334}
      - serializedVersion: 3
        time: 8.333334
        value: {x: 0.47852287, y: -0.16149335, z: -0.14517684, w: 0.8507993}
        inSlope: {x: 0.01780986, y: 0.028860565, z: 0.024923526, w: -0.00027984258}
        outSlope: {x: 0.01780986, y: 0.028860565, z: 0.024923526, w: -0.00027984258}
        tangentMode: 0
        weightedMode: 0
        inWeight: {x: 0.33333334, y: 0.33333334, z: 0.33333334, w: 0.33333334}
        outWeight: {x: 0.33333334, y: 0.33333334, z: 0.33333334, w: 0.33333334}
      m_PreInfinity: 2
      m_PostInfinity: 2
      m_RotationOrder: 4
    path: mixamorig:Hips/mixamorig:Spine/mixamorig:Spine1/mixamorig:Spine2/mixamorig:LeftShoulder/mixamorig:LeftArm
  - curve:
      serializedVersion: 2
      m_Curve:
      - serializedVersion: 3
        time: 0
        value: {x: 0.0032777758, y: 0.013273732, z: -0.24916515, w: 0.9683645}
        inSlope: {x: -0.000088191584, y: 0.000021765007, z: 0.006433725, w: 0.0016558169}
        outSlope: {x: -0.000088191584, y: 0.000021765007, z: 0.006433725, w: 0.0016558169}
        tangentMode: 0
        weightedMode: 0
        inWeight: {x: 0.33333334, y: 0.33333334, z: 0.33333334, w: 0.33333334}
        outWeight: {x: 0.33333334, y: 0.33333334, z: 0.33333334, w: 0.33333334}
      - serializedVersion: 3
        time: 1.2
        value: {x: 0.003193266, y: 0.013063151, z: -0.24741842, w: 0.9688154}
        inSlope: {x: 0.00012224668, y: 0.0019961102, z: -0.013374178, w: -0.0034421715}
        outSlope: {x: 0.00012224668, y: 0.0019961102, z: -0.013374178, w: -0.0034421715}
        tangentMode: 0
        weightedMode: 0
        inWeight: {x: 0.33333334, y: 0.33333334, z: 0.33333334, w: 0.33333334}
        outWeight: {x: 0.33333334, y: 0.33333334, z: 0.33333334, w: 0.33333334}
      - serializedVersion: 3
        time: 2.5666668
        value: {x: 0.0033454916, y: 0.013867771, z: -0.25298592, w: 0.9673648}
        inSlope: {x: 0.0001283096, y: 0.0006485364, z: -0.0045172917, w: -0.0011900079}
        outSlope: {x: 0.0001283096, y: 0.0006485364, z: -0.0045172917, w: -0.0011900079}
        tangentMode: 0
        weightedMode: 0
        inWeight: {x: 0.33333334, y: 0.33333334, z: 0.33333334, w: 0.33333334}
        outWeight: {x: 0.33333334, y: 0.33333334, z: 0.33333334, w: 0.33333334}
      - serializedVersion: 3
        time: 3.5333335
        value: {x: 0.0033150546, y: 0.014493986, z: -0.25705528, w: 0.9662823}
        inSlope: {x: 0.00018663722, y: 0.0024105958, z: -0.016188487, w: -0.0043425006}
        outSlope: {x: 0.00018663722, y: 0.0024105958, z: -0.016188487, w: -0.0043425006}
        tangentMode: 0
        weightedMode: 0
        inWeight: {x: 0.33333334, y: 0.33333334, z: 0.33333334, w: 0.33333334}
        outWeight: {x: 0.33333334, y: 0.33333334, z: 0.33333334, w: 0.33333334}
      - serializedVersion: 3
        time: 5.166667
        value: {x: 0.0032270527, y: 0.0134679675, z: -0.25014594, w: 0.9681091}
        inSlope: {x: 0.000015810381, y: 0.0003652278, z: -0.002876225, w: -0.000748337}
        outSlope: {x: 0.000015810381, y: 0.0003652278, z: -0.002876225, w: -0.000748337}
        tangentMode: 0
        weightedMode: 0
        inWeight: {x: 0.33333334, y: 0.33333334, z: 0.33333334, w: 0.33333334}
        outWeight: {x: 0.33333334, y: 0.33333334, z: 0.33333334, w: 0.33333334}
      - serializedVersion: 3
        time: 6.8333335
        value: {x: 0.0033312568, y: 0.014392607, z: -0.25623024, w: 0.9665029}
        inSlope: {x: 0.00010441766, y: -0.00017880014, z: 0.0020858664, w: 0.0005552178}
        outSlope: {x: 0.00010441766, y: -0.00017880014, z: 0.0020858664, w: 0.0005552178}
        tangentMode: 0
        weightedMode: 0
        inWeight: {x: 0.33333334, y: 0.33333334, z: 0.33333334, w: 0.33333334}
        outWeight: {x: 0.33333334, y: 0.33333334, z: 0.33333334, w: 0.33333334}
      - serializedVersion: 3
        time: 7.9000006
        value: {x: 0.0032252946, y: 0.013437423, z: -0.24994233, w: 0.9681621}
        inSlope: {x: 0.000034997967, y: 0.0005952135, z: -0.0073168497, w: -0.0018972176}
        outSlope: {x: 0.000034997967, y: 0.0005952135, z: -0.0073168497, w: -0.0018972176}
        tangentMode: 0
        weightedMode: 0
        inWeight: {x: 0.33333334, y: 0.33333334, z: 0.33333334, w: 0.33333334}
        outWeight: {x: 0.33333334, y: 0.33333334, z: 0.33333334, w: 0.33333334}
      - serializedVersion: 3
        time: 8.333334
        value: {x: 0.0032633594, y: 0.013905815, z: -0.2530941, w: 0.96733624}
        inSlope: {x: 0.00037747627, y: 0.0043922365, z: -0.029630415, w: -0.007818653}
        outSlope: {x: 0.00037747627, y: 0.0043922365, z: -0.029630415, w: -0.007818653}
        tangentMode: 0
        weightedMode: 0
        inWeight: {x: 0.33333334, y: 0.33333334, z: 0.33333334, w: 0.33333334}
        outWeight: {x: 0.33333334, y: 0.33333334, z: 0.33333334, w: 0.33333334}
      m_PreInfinity: 2
      m_PostInfinity: 2
      m_RotationOrder: 4
    path: mixamorig:Hips/mixamorig:Spine/mixamorig:Spine1/mixamorig:Spine2/mixamorig:LeftShoulder/mixamorig:LeftArm/mixamorig:LeftForeArm
  - curve:
      serializedVersion: 2
      m_Curve:
      - serializedVersion: 3
        time: 0
        value: {x: 0, y: -0, z: -0, w: 1}
        inSlope: {x: 0, y: 0, z: 0, w: 0}
        outSlope: {x: 0, y: 0, z: 0, w: 0}
        tangentMode: 0
        weightedMode: 0
        inWeight: {x: 0.33333334, y: 0.33333334, z: 0.33333334, w: 0.33333334}
        outWeight: {x: 0.33333334, y: 0.33333334, z: 0.33333334, w: 0.33333334}
      - serializedVersion: 3
        time: 0.033333335
        value: {x: 0, y: -0, z: -0, w: 1}
        inSlope: {x: 0, y: 0, z: 0, w: 0}
        outSlope: {x: 0, y: 0, z: 0, w: 0}
        tangentMode: 0
        weightedMode: 0
        inWeight: {x: 0.33333334, y: 0.33333334, z: 0.33333334, w: 0.33333334}
        outWeight: {x: 0.33333334, y: 0.33333334, z: 0.33333334, w: 0.33333334}
      m_PreInfinity: 2
      m_PostInfinity: 2
      m_RotationOrder: 4
    path: mixamorig:Hips/mixamorig:Spine/mixamorig:Spine1/mixamorig:Spine2/mixamorig:LeftShoulder/mixamorig:LeftArm/mixamorig:LeftForeArm/mixamorig:LeftHand
  - curve:
      serializedVersion: 2
      m_Curve:
      - serializedVersion: 3
        time: 0
        value: {x: 0.55107546, y: 0.46382076, z: -0.4797088, w: 0.5010645}
        inSlope: {x: 0.045862194, y: -0.0381124, z: 0.015239417, w: -0.00069558615}
        outSlope: {x: 0.045862194, y: -0.0381124, z: 0.015239417, w: -0.00069558615}
        tangentMode: 0
        weightedMode: 0
        inWeight: {x: 0.33333334, y: 0.33333334, z: 0.33333334, w: 0.33333334}
        outWeight: {x: 0.33333334, y: 0.33333334, z: 0.33333334, w: 0.33333334}
      - serializedVersion: 3
        time: 0.3
        value: {x: 0.57155925, y: 0.4473143, z: -0.47317442, w: 0.49933544}
        inSlope: {x: 0.09535701, y: -0.07693113, z: 0.030672405, w: -0.011036844}
        outSlope: {x: 0.09535701, y: -0.07693113, z: 0.030672405, w: -0.011036844}
        tangentMode: 0
        weightedMode: 0
        inWeight: {x: 0.33333334, y: 0.33333334, z: 0.33333334, w: 0.33333334}
        outWeight: {x: 0.33333334, y: 0.33333334, z: 0.33333334, w: 0.33333334}
      - serializedVersion: 3
        time: 0.53333336
        value: {x: 0.58438575, y: 0.43704253, z: -0.46776366, w: 0.49868253}
        inSlope: {x: 0.04417684, y: -0.035491407, z: 0.019459412, w: -0.0023192149}
        outSlope: {x: 0.04417684, y: -0.035491407, z: 0.019459412, w: -0.0023192149}
        tangentMode: 0
        weightedMode: 0
        inWeight: {x: 0.33333334, y: 0.33333334, z: 0.33333334, w: 0.33333334}
        outWeight: {x: 0.33333334, y: 0.33333334, z: 0.33333334, w: 0.33333334}
      - serializedVersion: 3
        time: 1.2
        value: {x: 0.5697556, y: 0.4489928, z: -0.4723756, w: 0.50064486}
        inSlope: {x: -0.0033259424, y: 0.002484622, z: -0.0040751733, w: -0.0022888207}
        outSlope: {x: -0.0033259424, y: 0.002484622, z: -0.0040751733, w: -0.0022888207}
        tangentMode: 0
        weightedMode: 0
        inWeight: {x: 0.33333334, y: 0.33333334, z: 0.33333334, w: 0.33333334}
        outWeight: {x: 0.33333334, y: 0.33333334, z: 0.33333334, w: 0.33333334}
      - serializedVersion: 3
        time: 1.5333334
        value: {x: 0.5512961, y: 0.46450263, z: -0.4777346, w: 0.50207525}
        inSlope: {x: -0.010081539, y: 0.009933123, z: 0.007365353, w: 0.008887061}
        outSlope: {x: -0.010081539, y: 0.009933123, z: 0.007365353, w: 0.008887061}
        tangentMode: 0
        weightedMode: 0
        inWeight: {x: 0.33333334, y: 0.33333334, z: 0.33333334, w: 0.33333334}
        outWeight: {x: 0.33333334, y: 0.33333334, z: 0.33333334, w: 0.33333334}
      - serializedVersion: 3
        time: 2.5333335
        value: {x: 0.5603878, y: 0.45658675, z: -0.4760647, w: 0.5008557}
        inSlope: {x: -0.008514234, y: 0.0067520207, z: 0.0010925542, w: 0.004411344}
        outSlope: {x: -0.008514234, y: 0.0067520207, z: 0.0010925542, w: 0.004411344}
        tangentMode: 0
        weightedMode: 0
        inWeight: {x: 0.33333334, y: 0.33333334, z: 0.33333334, w: 0.33333334}
        outWeight: {x: 0.33333334, y: 0.33333334, z: 0.33333334, w: 0.33333334}
      - serializedVersion: 3
        time: 3.4333334
        value: {x: 0.5471273, y: 0.46725088, z: -0.48099458, w: 0.50097156}
        inSlope: {x: -0.05810366, y: 0.047752142, z: -0.017969862, w: 0.0016853185}
        outSlope: {x: -0.05810366, y: 0.047752142, z: -0.017969862, w: 0.0016853185}
        tangentMode: 0
        weightedMode: 0
        inWeight: {x: 0.33333334, y: 0.33333334, z: 0.33333334, w: 0.33333334}
        outWeight: {x: 0.33333334, y: 0.33333334, z: 0.33333334, w: 0.33333334}
      - serializedVersion: 3
        time: 4
        value: {x: 0.5355391, y: 0.47666427, z: -0.4862974, w: 0.49950367}
        inSlope: {x: -0.007993018, y: 0.006190568, z: -0.0038583584, w: -0.0010898623}
        outSlope: {x: -0.007993018, y: 0.006190568, z: -0.0038583584, w: -0.0010898623}
        tangentMode: 0
        weightedMode: 0
        inWeight: {x: 0.33333334, y: 0.33333334, z: 0.33333334, w: 0.33333334}
        outWeight: {x: 0.33333334, y: 0.33333334, z: 0.33333334, w: 0.33333334}
      - serializedVersion: 3
        time: 4.7000003
        value: {x: 0.56995183, y: 0.44802034, z: -0.47566274, w: 0.49817434}
        inSlope: {x: 0.045349047, y: -0.038431622, z: 0.023645483, w: 0.005224501}
        outSlope: {x: 0.045349047, y: -0.038431622, z: 0.023645483, w: 0.005224501}
        tangentMode: 0
        weightedMode: 0
        inWeight: {x: 0.33333334, y: 0.33333334, z: 0.33333334, w: 0.33333334}
        outWeight: {x: 0.33333334, y: 0.33333334, z: 0.33333334, w: 0.33333334}
      - serializedVersion: 3
        time: 5.3
        value: {x: 0.58151346, y: 0.4386924, z: -0.46846706, w: 0.49992967}
        inSlope: {x: -0.10729472, y: 0.088870615, z: -0.037969835, w: 0.011161577}
        outSlope: {x: -0.10729472, y: 0.088870615, z: -0.037969835, w: 0.011161577}
        tangentMode: 0
        weightedMode: 0
        inWeight: {x: 0.33333334, y: 0.33333334, z: 0.33333334, w: 0.33333334}
        outWeight: {x: 0.33333334, y: 0.33333334, z: 0.33333334, w: 0.33333334}
      - serializedVersion: 3
        time: 5.666667
        value: {x: 0.5538046, y: 0.46162862, z: -0.47812048, w: 0.50159776}
        inSlope: {x: -0.017421858, y: 0.015671268, z: -0.008592465, w: -0.003384951}
        outSlope: {x: -0.017421858, y: 0.015671268, z: -0.008592465, w: -0.003384951}
        tangentMode: 0
        weightedMode: 0
        inWeight: {x: 0.33333334, y: 0.33333334, z: 0.33333334, w: 0.33333334}
        outWeight: {x: 0.33333334, y: 0.33333334, z: 0.33333334, w: 0.33333334}
      - serializedVersion: 3
        time: 6.433334
        value: {x: 0.53551, y: 0.4783779, z: -0.48192284, w: 0.5021295}
        inSlope: {x: -0.040895678, y: 0.03520358, z: -0.0075329915, w: 0.0028717546}
        outSlope: {x: -0.040895678, y: 0.03520358, z: -0.0075329915, w: 0.0028717546}
        tangentMode: 0
        weightedMode: 0
        inWeight: {x: 0.33333334, y: 0.33333334, z: 0.33333334, w: 0.33333334}
        outWeight: {x: 0.33333334, y: 0.33333334, z: 0.33333334, w: 0.33333334}
      - serializedVersion: 3
        time: 6.9000006
        value: {x: 0.54434943, y: 0.47081494, z: -0.4793589, w: 0.50222707}
        inSlope: {x: 0.064502195, y: -0.053287968, z: 0.015418118, w: -0.0051828865}
        outSlope: {x: 0.064502195, y: -0.053287968, z: 0.015418118, w: -0.0051828865}
        tangentMode: 0
        weightedMode: 0
        inWeight: {x: 0.33333334, y: 0.33333334, z: 0.33333334, w: 0.33333334}
        outWeight: {x: 0.33333334, y: 0.33333334, z: 0.33333334, w: 0.33333334}
      - serializedVersion: 3
        time: 7.3666673
        value: {x: 0.56750816, y: 0.45023504, z: -0.47385672, w: 0.50068223}
        inSlope: {x: 0.075942665, y: -0.06332877, z: 0.022529962, w: -0.007766731}
        outSlope: {x: 0.075942665, y: -0.06332877, z: 0.022529962, w: -0.007766731}
        tangentMode: 0
        weightedMode: 0
        inWeight: {x: 0.33333334, y: 0.33333334, z: 0.33333334, w: 0.33333334}
        outWeight: {x: 0.33333334, y: 0.33333334, z: 0.33333334, w: 0.33333334}
      - serializedVersion: 3
        time: 8
        value: {x: 0.57555264, y: 0.44364783, z: -0.46979868, w: 0.5012035}
        inSlope: {x: -0.032192696, y: 0.027379932, z: -0.008625958, w: 0.004621442}
        outSlope: {x: -0.032192696, y: 0.027379932, z: -0.008625958, w: 0.004621442}
        tangentMode: 0
        weightedMode: 0
        inWeight: {x: 0.33333334, y: 0.33333334, z: 0.33333334, w: 0.33333334}
        outWeight: {x: 0.33333334, y: 0.33333334, z: 0.33333334, w: 0.33333334}
      - serializedVersion: 3
        time: 8.333334
        value: {x: 0.55581456, y: 0.4597892, z: -0.4758646, w: 0.5032067}
        inSlope: {x: -0.06297569, y: 0.051246375, z: -0.018892622, w: 0.0048458576}
        outSlope: {x: -0.06297569, y: 0.051246375, z: -0.018892622, w: 0.0048458576}
        tangentMode: 0
        weightedMode: 0
        inWeight: {x: 0.33333334, y: 0.33333334, z: 0.33333334, w: 0.33333334}
        outWeight: {x: 0.33333334, y: 0.33333334, z: 0.33333334, w: 0.33333334}
      m_PreInfinity: 2
      m_PostInfinity: 2
      m_RotationOrder: 4
    path: mixamorig:Hips/mixamorig:Spine/mixamorig:Spine1/mixamorig:Spine2/mixamorig:RightShoulder
  - curve:
      serializedVersion: 2
      m_Curve:
      - serializedVersion: 3
        time: 0
        value: {x: 0.45005673, y: 0.019827424, z: 0.25891677, w: 0.8544109}
        inSlope: {x: -0.017616749, y: 0.006815828, z: 0.007852614, w: 0.006732344}
        outSlope: {x: -0.017616749, y: 0.006815828, z: 0.007852614, w: 0.006732344}
        tangentMode: 0
        weightedMode: 0
        inWeight: {x: 0.33333334, y: 0.33333334, z: 0.33333334, w: 0.33333334}
        outWeight: {x: 0.33333334, y: 0.33333334, z: 0.33333334, w: 0.33333334}
      - serializedVersion: 3
        time: 0.3
        value: {x: 0.43877283, y: 0.02553116, z: 0.25156686, w: 0.86228806}
        inSlope: {x: -0.09090767, y: 0.022096515, z: -0.0067086522, w: 0.047615472}
        outSlope: {x: -0.09090767, y: 0.022096515, z: -0.0067086522, w: 0.047615472}
        tangentMode: 0
        weightedMode: 0
        inWeight: {x: 0.33333334, y: 0.33333334, z: 0.33333334, w: 0.33333334}
        outWeight: {x: 0.33333334, y: 0.33333334, z: 0.33333334, w: 0.33333334}
      - serializedVersion: 3
        time: 0.5
        value: {x: 0.43164095, y: 0.023835622, z: 0.24910484, w: 0.86664}
        inSlope: {x: -0.027848937, y: 0.000646343, z: -0.08458638, w: 0.03821612}
        outSlope: {x: -0.027848937, y: 0.000646343, z: -0.08458638, w: 0.03821612}
        tangentMode: 0
        weightedMode: 0
        inWeight: {x: 0.33333334, y: 0.33333334, z: 0.33333334, w: 0.33333334}
        outWeight: {x: 0.33333334, y: 0.33333334, z: 0.33333334, w: 0.33333334}
      - serializedVersion: 3
        time: 0.90000004
        value: {x: 0.43623447, y: 0.031620678, z: 0.2490374, w: 0.8641065}
        inSlope: {x: 0.023141203, y: -0.0017111923, z: 0.05392559, w: -0.027172565}
        outSlope: {x: 0.023141203, y: -0.0017111923, z: 0.05392559, w: -0.027172565}
        tangentMode: 0
        weightedMode: 0
        inWeight: {x: 0.33333334, y: 0.33333334, z: 0.33333334, w: 0.33333334}
        outWeight: {x: 0.33333334, y: 0.33333334, z: 0.33333334, w: 0.33333334}
      - serializedVersion: 3
        time: 1.3333334
        value: {x: 0.44186008, y: 0.027940996, z: 0.2590162, w: 0.85842276}
        inSlope: {x: 0.06776999, y: -0.011883726, z: 0.060823545, w: -0.052775115}
        outSlope: {x: 0.06776999, y: -0.011883726, z: 0.060823545, w: -0.052775115}
        tangentMode: 0
        weightedMode: 0
        inWeight: {x: 0.33333334, y: 0.33333334, z: 0.33333334, w: 0.33333334}
        outWeight: {x: 0.33333334, y: 0.33333334, z: 0.33333334, w: 0.33333334}
      - serializedVersion: 3
        time: 1.6666667
        value: {x: 0.4465248, y: 0.016900131, z: 0.24769123, w: 0.8596389}
        inSlope: {x: -0.00073760824, y: -0.024065305, z: -0.02791154, w: 0.008912095}
        outSlope: {x: -0.00073760824, y: -0.024065305, z: -0.02791154, w: 0.008912095}
        tangentMode: 0
        weightedMode: 0
        inWeight: {x: 0.33333334, y: 0.33333334, z: 0.33333334, w: 0.33333334}
        outWeight: {x: 0.33333334, y: 0.33333334, z: 0.33333334, w: 0.33333334}
      - serializedVersion: 3
        time: 2.1000001
        value: {x: 0.4367948, y: 0.027606871, z: 0.25578007, w: 0.86198884}
        inSlope: {x: -0.037288554, y: 0.032823175, z: 0.05509173, w: 0.0015163437}
        outSlope: {x: -0.037288554, y: 0.032823175, z: 0.05509173, w: 0.0015163437}
        tangentMode: 0
        weightedMode: 0
        inWeight: {x: 0.33333334, y: 0.33333334, z: 0.33333334, w: 0.33333334}
        outWeight: {x: 0.33333334, y: 0.33333334, z: 0.33333334, w: 0.33333334}
      - serializedVersion: 3
        time: 2.5000002
        value: {x: 0.43449506, y: 0.03156397, z: 0.26780286, w: 0.85935986}
        inSlope: {x: 0.01701812, y: 0.029913198, z: 0.041593328, w: -0.022648502}
        outSlope: {x: 0.01701812, y: 0.029913198, z: 0.041593328, w: -0.022648502}
        tangentMode: 0
        weightedMode: 0
        inWeight: {x: 0.33333334, y: 0.33333334, z: 0.33333334, w: 0.33333334}
        outWeight: {x: 0.33333334, y: 0.33333334, z: 0.33333334, w: 0.33333334}
      - serializedVersion: 3
        time: 3.0666668
        value: {x: 0.4371429, y: 0.027285168, z: 0.25160828, w: 0.8630498}
        inSlope: {x: 0.023541324, y: -0.021222329, z: -0.009277323, w: -0.0085473135}
        outSlope: {x: 0.023541324, y: -0.021222329, z: -0.009277323, w: -0.0085473135}
        tangentMode: 0
        weightedMode: 0
        inWeight: {x: 0.33333334, y: 0.33333334, z: 0.33333334, w: 0.33333334}
        outWeight: {x: 0.33333334, y: 0.33333334, z: 0.33333334, w: 0.33333334}
      - serializedVersion: 3
        time: 3.4333334
        value: {x: 0.44936165, y: 0.02763873, z: 0.24674593, w: 0.85815305}
        inSlope: {x: 0.052425437, y: 0.028060187, z: 0.004595739, w: -0.029668739}
        outSlope: {x: 0.052425437, y: 0.028060187, z: 0.004595739, w: -0.029668739}
        tangentMode: 0
        weightedMode: 0
        inWeight: {x: 0.33333334, y: 0.33333334, z: 0.33333334, w: 0.33333334}
        outWeight: {x: 0.33333334, y: 0.33333334, z: 0.33333334, w: 0.33333334}
      - serializedVersion: 3
        time: 4
        value: {x: 0.4522766, y: 0.028466785, z: 0.23335491, w: 0.86033773}
        inSlope: {x: -0.0080085695, y: -0.027697075, z: -0.021173269, w: 0.010866465}
        outSlope: {x: -0.0080085695, y: -0.027697075, z: -0.021173269, w: 0.010866465}
        tangentMode: 0
        weightedMode: 0
        inWeight: {x: 0.33333334, y: 0.33333334, z: 0.33333334, w: 0.33333334}
        outWeight: {x: 0.33333334, y: 0.33333334, z: 0.33333334, w: 0.33333334}
      - serializedVersion: 3
        time: 4.366667
        value: {x: 0.4416011, y: 0.013579108, z: 0.22787528, w: 0.86768484}
        inSlope: {x: -0.041614063, y: -0.018076556, z: 0.022895359, w: 0.015444174}
        outSlope: {x: -0.041614063, y: -0.018076556, z: 0.022895359, w: 0.015444174}
        tangentMode: 0
        weightedMode: 0
        inWeight: {x: 0.33333334, y: 0.33333334, z: 0.33333334, w: 0.33333334}
        outWeight: {x: 0.33333334, y: 0.33333334, z: 0.33333334, w: 0.33333334}
      - serializedVersion: 3
        time: 4.666667
        value: {x: 0.4341321, y: 0.013301859, z: 0.2387588, w: 0.8685313}
        inSlope: {x: 0.004716669, y: -0.0063035185, z: 0.06356439, w: -0.019722302}
        outSlope: {x: 0.004716669, y: -0.0063035185, z: 0.06356439, w: -0.019722302}
        tangentMode: 0
        weightedMode: 0
        inWeight: {x: 0.33333334, y: 0.33333334, z: 0.33333334, w: 0.33333334}
        outWeight: {x: 0.33333334, y: 0.33333334, z: 0.33333334, w: 0.33333334}
      - serializedVersion: 3
        time: 5.1000004
        value: {x: 0.41994202, y: 0.020740744, z: 0.24708615, w: 0.8730218}
        inSlope: {x: 0.0051999143, y: 0.024677884, z: -0.008285576, w: -0.0007456548}
        outSlope: {x: 0.0051999143, y: 0.024677884, z: -0.008285576, w: -0.0007456548}
        tangentMode: 0
        weightedMode: 0
        inWeight: {x: 0.33333334, y: 0.33333334, z: 0.33333334, w: 0.33333334}
        outWeight: {x: 0.33333334, y: 0.33333334, z: 0.33333334, w: 0.33333334}
      - serializedVersion: 3
        time: 5.6333337
        value: {x: 0.44676232, y: 0.030200388, z: 0.26248565, w: 0.8547471}
        inSlope: {x: 0.012706977, y: -0.012437191, z: -0.031182498, w: 0.0033822688}
        outSlope: {x: 0.012706977, y: -0.012437191, z: -0.031182498, w: 0.0033822688}
        tangentMode: 0
        weightedMode: 0
        inWeight: {x: 0.33333334, y: 0.33333334, z: 0.33333334, w: 0.33333334}
        outWeight: {x: 0.33333334, y: 0.33333334, z: 0.33333334, w: 0.33333334}
      - serializedVersion: 3
        time: 6.033334
        value: {x: 0.44931632, y: 0.02864182, z: 0.2557112, w: 0.8555152}
        inSlope: {x: 0.009430209, y: -0.010868321, z: -0.028104212, w: 0.003814999}
        outSlope: {x: 0.009430209, y: -0.010868321, z: -0.028104212, w: 0.003814999}
        tangentMode: 0
        weightedMode: 0
        inWeight: {x: 0.33333334, y: 0.33333334, z: 0.33333334, w: 0.33333334}
        outWeight: {x: 0.33333334, y: 0.33333334, z: 0.33333334, w: 0.33333334}
      - serializedVersion: 3
        time: 6.866667
        value: {x: 0.4508579, y: 0.01571046, z: 0.24794763, w: 0.8573228}
        inSlope: {x: -0.04493212, y: -0.006152514, z: -0.075429544, w: 0.04559104}
        outSlope: {x: -0.04493212, y: -0.006152514, z: -0.075429544, w: 0.04559104}
        tangentMode: 0
        weightedMode: 0
        inWeight: {x: 0.33333334, y: 0.33333334, z: 0.33333334, w: 0.33333334}
        outWeight: {x: 0.33333334, y: 0.33333334, z: 0.33333334, w: 0.33333334}
      - serializedVersion: 3
        time: 7.3333335
        value: {x: 0.43892312, y: 0.026542038, z: 0.2475841, w: 0.86333317}
        inSlope: {x: -0.057310395, y: 0.012027703, z: -0.017524604, w: 0.033795632}
        outSlope: {x: -0.057310395, y: 0.012027703, z: -0.017524604, w: 0.033795632}
        tangentMode: 0
        weightedMode: 0
        inWeight: {x: 0.33333334, y: 0.33333334, z: 0.33333334, w: 0.33333334}
        outWeight: {x: 0.33333334, y: 0.33333334, z: 0.33333334, w: 0.33333334}
      - serializedVersion: 3
        time: 7.933334
        value: {x: 0.42364132, y: 0.031876024, z: 0.2685526, w: 0.86451805}
        inSlope: {x: 0.0044444245, y: -0.004745503, z: -0.012462895, w: 0.0018659252}
        outSlope: {x: 0.0044444245, y: -0.004745503, z: -0.012462895, w: 0.0018659252}
        tangentMode: 0
        weightedMode: 0
        inWeight: {x: 0.33333334, y: 0.33333334, z: 0.33333334, w: 0.33333334}
        outWeight: {x: 0.33333334, y: 0.33333334, z: 0.33333334, w: 0.33333334}
      - serializedVersion: 3
        time: 8.333334
        value: {x: 0.43743953, y: 0.023826456, z: 0.26809904, w: 0.8580221}
        inSlope: {x: 0.034947027, y: -0.001223563, z: 0.018084424, w: -0.023443466}
        outSlope: {x: 0.034947027, y: -0.001223563, z: 0.018084424, w: -0.023443466}
        tangentMode: 0
        weightedMode: 0
        inWeight: {x: 0.33333334, y: 0.33333334, z: 0.33333334, w: 0.33333334}
        outWeight: {x: 0.33333334, y: 0.33333334, z: 0.33333334, w: 0.33333334}
      m_PreInfinity: 2
      m_PostInfinity: 2
      m_RotationOrder: 4
    path: mixamorig:Hips/mixamorig:Spine/mixamorig:Spine1/mixamorig:Spine2/mixamorig:RightShoulder/mixamorig:RightArm
  - curve:
      serializedVersion: 2
      m_Curve:
      - serializedVersion: 3
        time: 0
        value: {x: -0.04292226, y: 0.053808287, z: 0.53343683, w: 0.8430347}
        inSlope: {x: -0.0023298336, y: -0.0016027315, z: 0.012171864, w: -0.0077229734}
        outSlope: {x: -0.0023298336, y: -0.0016027315, z: 0.012171864, w: -0.0077229734}
        tangentMode: 0
        weightedMode: 0
        inWeight: {x: 0.33333334, y: 0.33333334, z: 0.33333334, w: 0.33333334}
        outWeight: {x: 0.33333334, y: 0.33333334, z: 0.33333334, w: 0.33333334}
      - serializedVersion: 3
        time: 0.8000001
        value: {x: -0.04415172, y: 0.0518865, z: 0.5423087, w: 0.83741254}
        inSlope: {x: 0.0021250916, y: 0.0035475562, z: -0.015797313, w: 0.010127125}
        outSlope: {x: 0.0021250916, y: 0.0035475562, z: -0.015797313, w: 0.010127125}
        tangentMode: 0
        weightedMode: 0
        inWeight: {x: 0.33333334, y: 0.33333334, z: 0.33333334, w: 0.33333334}
        outWeight: {x: 0.33333334, y: 0.33333334, z: 0.33333334, w: 0.33333334}
      - serializedVersion: 3
        time: 2.4
        value: {x: -0.043448985, y: 0.05305826, z: 0.53707653, w: 0.8407412}
        inSlope: {x: -0.0024539442, y: -0.002931266, z: 0.015635505, w: -0.009928653}
        outSlope: {x: -0.0024539442, y: -0.002931266, z: 0.015635505, w: -0.009928653}
        tangentMode: 0
        weightedMode: 0
        inWeight: {x: 0.33333334, y: 0.33333334, z: 0.33333334, w: 0.33333334}
        outWeight: {x: 0.33333334, y: 0.33333334, z: 0.33333334, w: 0.33333334}
      - serializedVersion: 3
        time: 3.266667
        value: {x: -0.04329592, y: 0.05331347, z: 0.535932, w: 0.841463}
        inSlope: {x: 0.0002087655, y: 0.000350755, z: -0.00157267, w: 0.000989736}
        outSlope: {x: 0.0002087655, y: 0.000350755, z: -0.00157267, w: 0.000989736}
        tangentMode: 0
        weightedMode: 0
        inWeight: {x: 0.33333334, y: 0.33333334, z: 0.33333334, w: 0.33333334}
        outWeight: {x: 0.33333334, y: 0.33333334, z: 0.33333334, w: 0.33333334}
      - serializedVersion: 3
        time: 4.2000003
        value: {x: -0.043827314, y: 0.05242846, z: 0.5398918, w: 0.83895606}
        inSlope: {x: -0.002810008, y: -0.0046772743, z: 0.020895323, w: -0.013293935}
        outSlope: {x: -0.002810008, y: -0.0046772743, z: 0.020895323, w: -0.013293935}
        tangentMode: 0
        weightedMode: 0
        inWeight: {x: 0.33333334, y: 0.33333334, z: 0.33333334, w: 0.33333334}
        outWeight: {x: 0.33333334, y: 0.33333334, z: 0.33333334, w: 0.33333334}
      - serializedVersion: 3
        time: 4.533334
        value: {x: -0.044427644, y: 0.05142504, z: 0.54436123, w: 0.83609366}
        inSlope: {x: 0.00051750883, y: 0.0008644706, z: -0.0038392106, w: 0.0024703634}
        outSlope: {x: 0.00051750883, y: 0.0008644706, z: -0.0038392106, w: 0.0024703634}
        tangentMode: 0
        weightedMode: 0
        inWeight: {x: 0.33333334, y: 0.33333334, z: 0.33333334, w: 0.33333334}
        outWeight: {x: 0.33333334, y: 0.33333334, z: 0.33333334, w: 0.33333334}
      - serializedVersion: 3
        time: 4.9
        value: {x: -0.044219606, y: 0.051773686, z: 0.54281133, w: 0.8370902}
        inSlope: {x: -0.0032461467, y: -0.005425444, z: 0.024150632, w: -0.015497819}
        outSlope: {x: -0.0032461467, y: -0.005425444, z: 0.024150632, w: -0.015497819}
        tangentMode: 0
        weightedMode: 0
        inWeight: {x: 0.33333334, y: 0.33333334, z: 0.33333334, w: 0.33333334}
        outWeight: {x: 0.33333334, y: 0.33333334, z: 0.33333334, w: 0.33333334}
      - serializedVersion: 3
        time: 5.7000003
        value: {x: -0.043197874, y: 0.053407375, z: 0.53536105, w: 0.8418255}
        inSlope: {x: 0.0017029808, y: 0.0011235113, z: -0.008742222, w: 0.005577212}
        outSlope: {x: 0.0017029808, y: 0.0011235113, z: -0.008742222, w: 0.005577212}
        tangentMode: 0
        weightedMode: 0
        inWeight: {x: 0.33333334, y: 0.33333334, z: 0.33333334, w: 0.33333334}
        outWeight: {x: 0.33333334, y: 0.33333334, z: 0.33333334, w: 0.33333334}
      - serializedVersion: 3
        time: 6.7333336
        value: {x: -0.04267267, y: 0.0543351, z: 0.5313122, w: 0.8443542}
        inSlope: {x: 0.00033376768, y: 0.000549574, z: -0.0024774694, w: 0.0015404837}
        outSlope: {x: 0.00033376768, y: 0.000549574, z: -0.0024774694, w: 0.0015404837}
        tangentMode: 0
        weightedMode: 0
        inWeight: {x: 0.33333334, y: 0.33333334, z: 0.33333334, w: 0.33333334}
        outWeight: {x: 0.33333334, y: 0.33333334, z: 0.33333334, w: 0.33333334}
      - serializedVersion: 3
        time: 7.966667
        value: {x: -0.044008415, y: 0.052125692, z: 0.54124224, w: 0.8380949}
        inSlope: {x: 0.0017158499, y: 0.0028548508, z: -0.012719171, w: 0.008123604}
        outSlope: {x: 0.0017158499, y: 0.0028548508, z: -0.012719171, w: 0.008123604}
        tangentMode: 0
        weightedMode: 0
        inWeight: {x: 0.33333334, y: 0.33333334, z: 0.33333334, w: 0.33333334}
        outWeight: {x: 0.33333334, y: 0.33333334, z: 0.33333334, w: 0.33333334}
      - serializedVersion: 3
        time: 8.333334
        value: {x: -0.042932816, y: 0.053916164, z: 0.5332246, w: 0.8431616}
        inSlope: {x: 0.0019865115, y: 0.0032937534, z: -0.0148183135, w: 0.009262564}
        outSlope: {x: 0.0019865115, y: 0.0032937534, z: -0.0148183135, w: 0.009262564}
        tangentMode: 0
        weightedMode: 0
        inWeight: {x: 0.33333334, y: 0.33333334, z: 0.33333334, w: 0.33333334}
        outWeight: {x: 0.33333334, y: 0.33333334, z: 0.33333334, w: 0.33333334}
      m_PreInfinity: 2
      m_PostInfinity: 2
      m_RotationOrder: 4
    path: mixamorig:Hips/mixamorig:Spine/mixamorig:Spine1/mixamorig:Spine2/mixamorig:RightShoulder/mixamorig:RightArm/mixamorig:RightForeArm
  - curve:
      serializedVersion: 2
      m_Curve:
      - serializedVersion: 3
        time: 0
        value: {x: 0, y: -0, z: -0, w: 1}
        inSlope: {x: 0, y: 0, z: 0, w: 0}
        outSlope: {x: 0, y: 0, z: 0, w: 0}
        tangentMode: 0
        weightedMode: 0
        inWeight: {x: 0.33333334, y: 0.33333334, z: 0.33333334, w: 0.33333334}
        outWeight: {x: 0.33333334, y: 0.33333334, z: 0.33333334, w: 0.33333334}
      - serializedVersion: 3
        time: 0.033333335
        value: {x: 0, y: -0, z: -0, w: 1}
        inSlope: {x: 0, y: 0, z: 0, w: 0}
        outSlope: {x: 0, y: 0, z: 0, w: 0}
        tangentMode: 0
        weightedMode: 0
        inWeight: {x: 0.33333334, y: 0.33333334, z: 0.33333334, w: 0.33333334}
        outWeight: {x: 0.33333334, y: 0.33333334, z: 0.33333334, w: 0.33333334}
      m_PreInfinity: 2
      m_PostInfinity: 2
      m_RotationOrder: 4
    path: mixamorig:Hips/mixamorig:Spine/mixamorig:Spine1/mixamorig:Spine2/mixamorig:RightShoulder/mixamorig:RightArm/mixamorig:RightForeArm/mixamorig:RightHand
  m_CompressedRotationCurves: []
  m_EulerCurves: []
  m_PositionCurves: []
  m_ScaleCurves:
  - curve:
      serializedVersion: 2
      m_Curve:
      - serializedVersion: 3
        time: 0
        value: {x: -1, y: -1, z: -1}
        inSlope: {x: 0, y: 0, z: 0}
        outSlope: {x: 0, y: 0, z: 0}
        tangentMode: 0
        weightedMode: 0
        inWeight: {x: 0.33333334, y: 0.33333334, z: 0.33333334}
        outWeight: {x: 0.33333334, y: 0.33333334, z: 0.33333334}
      - serializedVersion: 3
        time: 0.033333335
        value: {x: -1, y: -1, z: -1}
        inSlope: {x: 0, y: 0, z: 0}
        outSlope: {x: 0, y: 0, z: 0}
        tangentMode: 0
        weightedMode: 0
        inWeight: {x: 0.33333334, y: 0.33333334, z: 0.33333334}
        outWeight: {x: 0.33333334, y: 0.33333334, z: 0.33333334}
      m_PreInfinity: 2
      m_PostInfinity: 2
      m_RotationOrder: 4
    path: Object006w23eds
  - curve:
      serializedVersion: 2
      m_Curve:
      - serializedVersion: 3
        time: 0
        value: {x: -1, y: -1, z: -1}
        inSlope: {x: 0, y: 0, z: 0}
        outSlope: {x: 0, y: 0, z: 0}
        tangentMode: 0
        weightedMode: 0
        inWeight: {x: 0.33333334, y: 0.33333334, z: 0.33333334}
        outWeight: {x: 0.33333334, y: 0.33333334, z: 0.33333334}
      - serializedVersion: 3
        time: 0.033333335
        value: {x: -1, y: -1, z: -1}
        inSlope: {x: 0, y: 0, z: 0}
        outSlope: {x: 0, y: 0, z: 0}
        tangentMode: 0
        weightedMode: 0
        inWeight: {x: 0.33333334, y: 0.33333334, z: 0.33333334}
        outWeight: {x: 0.33333334, y: 0.33333334, z: 0.33333334}
      m_PreInfinity: 2
      m_PostInfinity: 2
      m_RotationOrder: 4
    path: milones
  - curve:
      serializedVersion: 2
      m_Curve:
      - serializedVersion: 3
        time: 0
        value: {x: -1, y: -1, z: -1}
        inSlope: {x: 0, y: 0, z: 0}
        outSlope: {x: 0, y: 0, z: 0}
        tangentMode: 0
        weightedMode: 0
        inWeight: {x: 0.33333334, y: 0.33333334, z: 0.33333334}
        outWeight: {x: 0.33333334, y: 0.33333334, z: 0.33333334}
      - serializedVersion: 3
        time: 0.033333335
        value: {x: -1, y: -1, z: -1}
        inSlope: {x: 0, y: 0, z: 0}
        outSlope: {x: 0, y: 0, z: 0}
        tangentMode: 0
        weightedMode: 0
        inWeight: {x: 0.33333334, y: 0.33333334, z: 0.33333334}
        outWeight: {x: 0.33333334, y: 0.33333334, z: 0.33333334}
      m_PreInfinity: 2
      m_PostInfinity: 2
      m_RotationOrder: 4
    path: Object008wqwqwqwas
  m_FloatCurves: []
  m_PPtrCurves: []
  m_SampleRate: 30
  m_WrapMode: 2
  m_Bounds:
    m_Center: {x: 4.1455755, y: 5.276767, z: -10.153126}
    m_Extent: {x: 0.33406925, y: 0.92539597, z: 0.40415573}
  m_ClipBindingConstant:
    genericBindings: []
    pptrCurveMapping: []
  m_AnimationClipSettings:
    serializedVersion: 2
    m_AdditiveReferencePoseClip: {fileID: 0}
    m_AdditiveReferencePoseTime: 0
    m_StartTime: 0
    m_StopTime: 8.333333
    m_OrientationOffsetY: 0
    m_Level: 0
    m_CycleOffset: 0
    m_HasAdditiveReferencePose: 0
    m_LoopTime: 0
    m_LoopBlend: 0
    m_LoopBlendOrientation: 0
    m_LoopBlendPositionY: 0
    m_LoopBlendPositionXZ: 0
    m_KeepOriginalOrientation: 0
    m_KeepOriginalPositionY: 1
    m_KeepOriginalPositionXZ: 0
    m_HeightFromFeet: 0
    m_Mirror: 0
  m_EditorCurves: []
  m_EulerEditorCurves: []
  m_HasGenericRootTransform: 0
  m_HasMotionFloatCurves: 0
  m_Events: []
